{
   "version": 2,
   "object_type": "ThalesContainer",
   "objects": [
      {
         "version": 2,
         "attributes": [
            {
               "name": "Target Sector",
               "source": {
                  "name": "Thales",
                  "TLP": "WHITE",
                  "object_type": "ThalesSource"
               },
               "value": "Retail",
               "object_type": "ThalesAttribute"
            },
            {
               "name": "Target Sector",
               "source": {
                  "name": "Thales",
                  "TLP": "WHITE",
                  "object_type": "ThalesSource"
               },
               "value": "Hospitality",
               "object_type": "ThalesAttribute"
            },
            {
               "name": "Target Sector",
               "source": {
                  "name": "Thales",
                  "TLP": "WHITE",
                  "object_type": "ThalesSource"
               },
               "value": "Healthcare",
               "object_type": "ThalesAttribute"
            },
            {
               "name": "Target Sector",
               "source": {
                  "name": "Thales",
                  "TLP": "WHITE",
                  "object_type": "ThalesSource"
               },
               "value": "Food and Agriculture",
               "object_type": "ThalesAttribute"
            },
            {
               "name": "Target Sector",
               "source": {
                  "name": "Thales",
                  "TLP": "WHITE",
                  "object_type": "ThalesSource"
               },
               "value": "Entertainment",
               "object_type": "ThalesAttribute"
            },
            {
               "name": "Target Sector",
               "source": {
                  "name": "Thales",
                  "TLP": "WHITE",
                  "object_type": "ThalesSource"
               },
               "value": "Banking",
               "object_type": "ThalesAttribute"
            },
            {
               "name": "Target Country",
               "source": {
                  "name": "Thales",
                  "TLP": "WHITE",
                  "object_type": "ThalesSource"
               },
               "value": "United States Of America",
               "object_type": "ThalesAttribute"
            },
            {
               "name": "Target Country",
               "source": {
                  "name": "Thales",
                  "TLP": "WHITE",
                  "object_type": "ThalesSource"
               },
               "value": "South Africa",
               "object_type": "ThalesAttribute"
            },
            {
               "name": "Target Country",
               "source": {
                  "name": "Thales",
                  "TLP": "WHITE",
                  "object_type": "ThalesSource"
               },
               "value": "Panama",
               "object_type": "ThalesAttribute"
            },
            {
               "name": "Target Country",
               "source": {
                  "name": "Thales",
                  "TLP": "WHITE",
                  "object_type": "ThalesSource"
               },
               "value": "Italy",
               "object_type": "ThalesAttribute"
            },
            {
               "name": "Target Country",
               "source": {
                  "name": "Thales",
                  "TLP": "WHITE",
                  "object_type": "ThalesSource"
               },
               "value": "Canada",
               "object_type": "ThalesAttribute"
            },
            {
               "name": "TLP",
               "source": {
                  "name": "Thales",
                  "TLP": "WHITE",
                  "object_type": "ThalesSource"
               },
               "value": "WHITE",
               "object_type": "ThalesAttribute"
            },
            {
               "name": "Motivation",
               "source": {
                  "name": "Thales",
                  "TLP": "WHITE",
                  "object_type": "ThalesSource"
               },
               "value": "Financial Gain",
               "object_type": "ThalesAttribute"
            }
         ],
         "sources": [
            {
               "name": "Thales",
               "TLP": "WHITE",
               "object_type": "ThalesSource"
            }
         ],
         "created": "2019-07-05T08:57:55Z",
         "related_reports": [],
         "internal_attributes": [],
         "modified": "2019-07-05T08:58:42Z",
         "id": "5b31ad4f-0206-511c-a568-092fd09328bf",
         "object_type": "ThalesAdversary",
         "name": "ATK113",
         "description": "<p><strong>ATK113</strong> (aka: FIN8) is a financially motivated group targeting the retail, hospitality and entertainment industries. The actor had previously conducted several tailored spearphishing campaigns using the downloader PUNCHBUGGY and POS malware PUNCHTRACK.</p>\n\n<h3>References</h3>\n\n<ul>\n\t<li><em>11/05/2016, FireEye, <a href=\"http://www.fireeye.com/blog/threat-research/2016/05/windows-zero-day-payment-cards.html\">Threat Actor Leverages Windows Zero-day Exploit in Payment Card Data Attacks</a></em></li>\n\t<li><em>20/06/2017, Root9B, <a href=\"http://www.root9b.com/sites/default/files/whitepapers/PoS%20Malware%20ShellTea%20PoSlurp.pdf\">SHELLTEA + POSLURP MALWARE MEMORY-RESIDENT POINT-OF-SALE MALWARE ATTACKS IN DUSTRY</a></em></li>\n\t<li><em>10/06/2019, Morphisec, <a href=\"http://blog.morphisec.com/security-alert-fin8-is-back\">FIN8 is Back in Business, Targeting the Hospitality Industry</a></em></li>\n</ul>\n",
         "types_of_attacker": [
            "Cyber Criminal"
         ],
         "related_adversaries": [
            {
               "name": "FIN8",
               "relationship": "alias"
            }
         ],
         "related_attack_patterns": [
            {
               "name": "T1002 - Data Compressed",
               "relationship": "uses"
            },
            {
               "name": "T1003 - Credential Dumping",
               "relationship": "uses"
            },
            {
               "name": "T1003.001 - LSASS Memory",
               "relationship": "uses"
            },
            {
               "name": "T1018 - Remote System Discovery",
               "relationship": "uses"
            },
            {
               "name": "T1021.001 - Remote Desktop Protocol",
               "relationship": "uses"
            },
            {
               "name": "T1021.002 - SMB/Windows Admin Shares",
               "relationship": "uses"
            },
            {
               "name": "T1027 - Obfuscated Files or Information",
               "relationship": "uses"
            },
            {
               "name": "T1032 - Standard Cryptographic Protocol",
               "relationship": "uses"
            },
            {
               "name": "T1043 - Commonly Used Port",
               "relationship": "uses"
            },
            {
               "name": "T1047 - Windows Management Instrumentation",
               "relationship": "uses"
            },
            {
               "name": "T1048 - Exfiltration Over Alternative Protocol",
               "relationship": "uses"
            },
            {
               "name": "T1048.003 - Exfiltration Over Unencrypted/Obfuscated Non-C2 Protocol",
               "relationship": "uses"
            },
            {
               "name": "T1053 - Scheduled Task",
               "relationship": "uses"
            },
            {
               "name": "T1053.005 - Scheduled Task",
               "relationship": "uses"
            },
            {
               "name": "T1059 - Command-Line Interface",
               "relationship": "uses"
            },
            {
               "name": "T1059.001 - PowerShell",
               "relationship": "uses"
            },
            {
               "name": "T1059.003 - Windows Command Shell",
               "relationship": "uses"
            },
            {
               "name": "T1063 - Security Software Discovery",
               "relationship": "uses"
            },
            {
               "name": "T1064 - Scripting",
               "relationship": "uses"
            },
            {
               "name": "T1068 - Exploitation for Privilege Escalation",
               "relationship": "uses"
            },
            {
               "name": "T1070 - Indicator Removal on Host",
               "relationship": "uses"
            },
            {
               "name": "T1070.001 - Clear Windows Event Logs",
               "relationship": "uses"
            },
            {
               "name": "T1070.004 - File Deletion",
               "relationship": "uses"
            },
            {
               "name": "T1074 - Data Staged",
               "relationship": "uses"
            },
            {
               "name": "T1074.002 - Remote Data Staging",
               "relationship": "uses"
            },
            {
               "name": "T1076 - Remote Desktop Protocol",
               "relationship": "uses"
            },
            {
               "name": "T1077 - Windows Admin Shares",
               "relationship": "uses"
            },
            {
               "name": "T1078 - Valid Accounts",
               "relationship": "uses"
            },
            {
               "name": "T1086 - PowerShell",
               "relationship": "uses"
            },
            {
               "name": "T1105 - Ingress Tool Transfer",
               "relationship": "uses"
            },
            {
               "name": "T1105 - Remote File Copy",
               "relationship": "uses"
            },
            {
               "name": "T1107 - File Deletion",
               "relationship": "uses"
            },
            {
               "name": "T1112 - Modify Registry",
               "relationship": "uses"
            },
            {
               "name": "T1192 - Spearphishing Link",
               "relationship": "uses"
            },
            {
               "name": "T1193 - Spearphishing Attachment",
               "relationship": "uses"
            },
            {
               "name": "T1204 - User Execution",
               "relationship": "uses"
            },
            {
               "name": "T1204.001 - Malicious Link",
               "relationship": "uses"
            },
            {
               "name": "T1204.002 - Malicious File",
               "relationship": "uses"
            },
            {
               "name": "T1518.001 - Security Software Discovery",
               "relationship": "uses"
            },
            {
               "name": "T1560.001 - Archive via Utility",
               "relationship": "uses"
            },
            {
               "name": "T1566.001 - Spearphishing Attachment",
               "relationship": "uses"
            },
            {
               "name": "T1566.002 - Spearphishing Link",
               "relationship": "uses"
            },
            {
               "name": "T1573.002 - Asymmetric Cryptography",
               "relationship": "uses"
            }
         ],
         "related_malwares": [
            {
               "name": "BADHATCH",
               "relationship": "uses"
            },
            {
               "name": "PUNCHBUGGY",
               "relationship": "uses"
            },
            {
               "name": "PUNCHTRACK",
               "relationship": "uses"
            },
            {
               "name": "PoSlurp",
               "relationship": "uses"
            },
            {
               "name": "Sardonic",
               "relationship": "uses"
            }
         ],
         "related_tools": [
            {
               "name": "Net",
               "relationship": "uses"
            },
            {
               "name": "dsquery",
               "relationship": "uses"
            }
         ],
         "related_vulnerabilities": [
            {
               "name": "CVE-2016-0167",
               "relationship": "targets"
            }
         ]
      },
      {
         "version": 2,
         "attributes": [],
         "sources": [
            {
               "name": "FireEye",
               "TLP": "WHITE",
               "object_type": "ThalesSource"
            }
         ],
         "created": "2019-08-23T10:09:46Z",
         "related_reports": [],
         "internal_attributes": [],
         "modified": "2019-08-29T12:17:15Z",
         "id": "309c02ef-50e0-568d-9588-92710612e924",
         "object_type": "ThalesCampaign",
         "name": "ATK113 (FIN8) targets retail - restaurant and hospility industries in North America",
         "description": "",
         "happened_at": "2016-03-01T12:06:00Z",
         "related_adversaries": [
            {
               "name": "ATK113",
               "relationship": "attributed-to"
            }
         ],
         "related_attack_patterns": [],
         "related_malwares": [],
         "related_tools": [],
         "related_vulnerabilities": []
      },
      {
         "version": 2,
         "attributes": [],
         "sources": [
            {
               "name": "Thales",
               "TLP": "WHITE",
               "object_type": "ThalesSource"
            }
         ],
         "created": "2019-08-23T10:26:14Z",
         "related_reports": [],
         "internal_attributes": [],
         "modified": "2019-08-23T10:26:14Z",
         "id": null,
         "object_type": "ThalesCampaign",
         "name": "ATK113 targets Retail Point-Of-Sale (PoS)",
         "description": "",
         "happened_at": "2017-06-01T12:25:00Z",
         "related_adversaries": [
            {
               "name": "ATK113",
               "relationship": "attributed-to"
            }
         ],
         "related_attack_patterns": [],
         "related_malwares": [],
         "related_tools": [],
         "related_vulnerabilities": []
      },
      {
         "version": 2,
         "attributes": [],
         "sources": [
            {
               "name": "Morphisec",
               "TLP": "WHITE",
               "object_type": "ThalesSource"
            }
         ],
         "created": "2019-08-23T10:30:04Z",
         "related_reports": [],
         "internal_attributes": [],
         "modified": "2019-08-23T10:30:04Z",
         "id": "dbae2ae9-a89c-5d00-b935-15093a1ed543",
         "object_type": "ThalesCampaign",
         "name": "ATK113 targets hotel-entertainment industry",
         "description": "",
         "happened_at": "2019-03-01T12:28:00Z",
         "related_adversaries": [
            {
               "name": "ATK113",
               "relationship": "attributed-to"
            }
         ],
         "related_attack_patterns": [],
         "related_malwares": [],
         "related_tools": [],
         "related_vulnerabilities": []
      }
   ]
}