{
   "version": 2,
   "object_type": "ThalesContainer",
   "objects": [
      {
         "version": 2,
         "attributes": [
            {
               "name": "Target Sector",
               "source": {
                  "name": "Thales",
                  "TLP": "WHITE",
                  "object_type": "ThalesSource"
               },
               "value": "Political Organizations",
               "object_type": "ThalesAttribute"
            },
            {
               "name": "Target Sector",
               "source": {
                  "name": "Thales",
                  "TLP": "WHITE",
                  "object_type": "ThalesSource"
               },
               "value": "Naval",
               "object_type": "ThalesAttribute"
            },
            {
               "name": "Target Sector",
               "source": {
                  "name": "Thales",
                  "TLP": "WHITE",
                  "object_type": "ThalesSource"
               },
               "value": "Military",
               "object_type": "ThalesAttribute"
            },
            {
               "name": "Target Sector",
               "source": {
                  "name": "Thales",
                  "TLP": "WHITE",
                  "object_type": "ThalesSource"
               },
               "value": "Media",
               "object_type": "ThalesAttribute"
            },
            {
               "name": "Target Sector",
               "source": {
                  "name": "Thales",
                  "TLP": "WHITE",
                  "object_type": "ThalesSource"
               },
               "value": "GOVERNMENT AND ADMINISTRATION agencies",
               "object_type": "ThalesAttribute"
            },
            {
               "name": "Target Sector",
               "source": {
                  "name": "Thales",
                  "TLP": "WHITE",
                  "object_type": "ThalesSource"
               },
               "value": "Education",
               "object_type": "ThalesAttribute"
            },
            {
               "name": "Target Sector",
               "source": {
                  "name": "Thales",
                  "TLP": "WHITE",
                  "object_type": "ThalesSource"
               },
               "value": "Defense",
               "object_type": "ThalesAttribute"
            },
            {
               "name": "Target Sector",
               "source": {
                  "name": "Thales",
                  "TLP": "WHITE",
                  "object_type": "ThalesSource"
               },
               "value": "Aviation",
               "object_type": "ThalesAttribute"
            },
            {
               "name": "Target Country",
               "source": {
                  "name": "Thales",
                  "TLP": "WHITE",
                  "object_type": "ThalesSource"
               },
               "value": "United States Of America",
               "object_type": "ThalesAttribute"
            },
            {
               "name": "Target Country",
               "source": {
                  "name": "Thales",
                  "TLP": "WHITE",
                  "object_type": "ThalesSource"
               },
               "value": "United Kingdom Of Great Britain And Northern Ireland",
               "object_type": "ThalesAttribute"
            },
            {
               "name": "Target Country",
               "source": {
                  "name": "Thales",
                  "TLP": "WHITE",
                  "object_type": "ThalesSource"
               },
               "value": "Malaysia",
               "object_type": "ThalesAttribute"
            },
            {
               "name": "Target Country",
               "source": {
                  "name": "Thales",
                  "TLP": "WHITE",
                  "object_type": "ThalesSource"
               },
               "value": "France",
               "object_type": "ThalesAttribute"
            },
            {
               "name": "Target Country",
               "source": {
                  "name": "Thales",
                  "TLP": "WHITE",
                  "object_type": "ThalesSource"
               },
               "value": "Egypt",
               "object_type": "ThalesAttribute"
            },
            {
               "name": "Target Country",
               "source": {
                  "name": "Thales",
                  "TLP": "WHITE",
                  "object_type": "ThalesSource"
               },
               "value": "Australia",
               "object_type": "ThalesAttribute"
            },
            {
               "name": "TLP",
               "source": {
                  "name": "Thales",
                  "TLP": "WHITE",
                  "object_type": "ThalesSource"
               },
               "value": "WHITE",
               "object_type": "ThalesAttribute"
            },
            {
               "name": "Origin",
               "source": {
                  "name": "Thales",
                  "TLP": "WHITE",
                  "object_type": "ThalesSource"
               },
               "value": "Worldwide",
               "object_type": "ThalesAttribute"
            },
            {
               "name": "Motivation",
               "source": {
                  "name": "Thales",
                  "TLP": "WHITE",
                  "object_type": "ThalesSource"
               },
               "value": "Revenge",
               "object_type": "ThalesAttribute"
            },
            {
               "name": "Motivation",
               "source": {
                  "name": "Thales",
                  "TLP": "WHITE",
                  "object_type": "ThalesSource"
               },
               "value": "Organizational Gain",
               "object_type": "ThalesAttribute"
            },
            {
               "name": "Motivation",
               "source": {
                  "name": "Thales",
                  "TLP": "WHITE",
                  "object_type": "ThalesSource"
               },
               "value": "Notoriety",
               "object_type": "ThalesAttribute"
            },
            {
               "name": "Motivation",
               "source": {
                  "name": "Thales",
                  "TLP": "WHITE",
                  "object_type": "ThalesSource"
               },
               "value": "Ideology",
               "object_type": "ThalesAttribute"
            },
            {
               "name": "Language",
               "source": {
                  "name": "Thales",
                  "TLP": "WHITE",
                  "object_type": "ThalesSource"
               },
               "value": "English",
               "object_type": "ThalesAttribute"
            },
            {
               "name": "Language",
               "source": {
                  "name": "Thales",
                  "TLP": "WHITE",
                  "object_type": "ThalesSource"
               },
               "value": "Arabic",
               "object_type": "ThalesAttribute"
            }
         ],
         "sources": [
            {
               "name": "Thales",
               "TLP": "WHITE",
               "object_type": "ThalesSource"
            }
         ],
         "created": "2019-09-02T15:08:55Z",
         "related_reports": [],
         "internal_attributes": [],
         "modified": "2019-09-02T15:08:55Z",
         "id": "fc233b93-28f7-50fd-9757-60f653b1dac8",
         "object_type": "ThalesAdversary",
         "name": "ATK133",
         "description": "<p style=\"text-align:justify\">United Cyber Caliphate (UCC) or Islamic State Hacking Division is a name of an umbrella for several hacking groups working for the Islamic State of Iraq and Levant (ISIS or ISIL) terrorist organization. The organization emerged in April 2016. Mostly known for its campaign against US military and governmental personal.</p>\n\n<p style=\"text-align:justify\">On April 4, 2016, the Cyber Caliphate Army (CCA), the principal ISIS hacking unit, and other pro-ISIS groups like the Sons Caliphate Army (SCA) and Kalacnikov.TN (KTN) merged and formed The United Cyber Caliphate (UCC). UCC groups include: - Cyber Caliphate, or Cyber Caliphate Army (CCA) was established shortly after the establishment of the Islamic State. The Key person behind the group was Junaid Hussain (Abu Hussain al Britani), or TriCK.</p>\n\n<p style=\"text-align:justify\">The most important cyber-terrorist attack of the CCA occurred on January 2015 when the Twitter and YouTube accounts of U.S Central Command and later on the Twitter accounts of the magazine Newsweek were hacked. - The Sons Caliphate Army (SCA) was established in 2016, as a sub group of Cyber Caliphate.</p>\n\n<p style=\"text-align:justify\">Mostly known for disrupting social media traffic on Facebook and Twitter. SCA Claimed to have hacked 10,000 Facebook accounts, more than 150 Facebook groups and over 5,000 Twitter profiles. - Kalashnikov E-Security Team was established in 2016. This group is focused on tech security advisory for ISIS Jihadists. It also uploaded ISIS-related jihadi literature, sharing posts from cyber jihadi groups, reporting successful attacks on websites and Facebook pages and publishing various web-hacking techniques. Gradually, the hackers started to conduct or assist in defacing hacks.</p>\n\n<p style=\"text-align:justify\">Although we have not seen any attacks by this group for almost two years, it is worth noting that members of the group may have reoriented themselves to new operations in other terrorist groups following the movements of ISIS.</p>\n\n<h3 style=\"text-align:justify\">References</h3>\n\n<ul>\n\t<li style=\"text-align:justify\">????? ???? ???????????, &lsquo;?????? ?????? ????????? ?????? ????? ?????? ????????&rsquo;, Alaan Online Newspaper, 11 February 2015, https://www.alaan.cc/article/219079/??????-??????-?????????-??????-?????-??????-????????--/.</li>\n\t<li style=\"text-align:justify\">YONAH JEREMY BOB, &lsquo;Exclusive: Islamic Cyber Terrorists Trying to Target Infrastructure&rsquo;, The Jerusalem Post | JPost.com, 9 July 2018, https://www.jpost.com/arab-israeli-conflict/exclusive-islamic-cyber-terrorists-trying-to-target-infrastructure-562052.</li>\n\t<li style=\"text-align:justify\">Will Ockenden and Benjamin Sveen, &lsquo;Pro-Islamic State Cyber Group Hack Websites of Australian Small Businesses&rsquo;, <em>ABC News</em>, 15 April 2016, https://www.abc.net.au/news/2016-04-15/pro-islamic-state-cyber-group-hack-websites-of-small-businesses/7329858.</li>\n\t<li style=\"text-align:justify\">SITE Intelligence Group, &lsquo;ACCA Claims Hacking 150 Twitter Accounts | Technology &amp; Terrorism | Articles&rsquo;, SITE Intelligence Group, 16 July 2019, https://ent.siteintelgroup.com/Dark-Web-and-Cyber-Security/acca-claims-hacking-150-twitter-accounts.html.</li>\n\t<li style=\"text-align:justify\">Newsweek, &lsquo;ISIS-Linked Cyber Group Releases &ldquo;kill List&rdquo; of 8,786 US Targets for Lone Wolf Attacks&rsquo;, Newsweek, 4 April 2017, https://www.newsweek.com/isis-linked-cyber-group-releases-kill-list-8786-us-targets-lone-wolf-attacks-578765.</li>\n\t<li style=\"text-align:justify\">Kelly Jackson Higgins, &lsquo;Hacking the State of the ISIS Cyber Caliphate&rsquo;, DARKReading, 7 June 2017, https://www.darkreading.com/perimeter/hacking-the-state-of-the-isis-cyber-caliphate.</li>\n\t<li style=\"text-align:justify\">Keith Perry, &lsquo;ISIS Hackers Intercept Top Secret British Government Emails&rsquo;, Mirror, 11 September 2015, http://www.mirror.co.uk/news/uk-news/isis-hackers-intercept-top-secret-6428423.</li>\n\t<li style=\"text-align:justify\">Agence France-Presse, &lsquo;Malaysia Airlines Website Hacked by &ldquo;Lizard Squad&rdquo;&rsquo;, the Guardian, 26 January 2015, http://www.theguardian.com/world/2015/jan/26/malaysia-airlines-website-hacked-by-lizard-squad.</li>\n\t<li style=\"text-align:justify\">Dominika Giantas and Dimitrios Stergiou, &lsquo;From Terrorism to Cyber-Terrorism: The Case of ISIS&rsquo;, SSRN Scholarly Paper, Social Science Research Network (Rochester, NY: Social Science Research Network, 7 March 2018), https://doi.org/10.2139/ssrn.3135927.</li>\n\t<li style=\"text-align:justify\">Laith Alkhouri, Alex Kassirer, and Allison Nixon, &lsquo;You Searched for Hacking for ISIS: The Emergent Cyber Threat Landscape&rsquo;, <em>Flashpoint</em> (blog), April 2016, https://www.flashpoint-intel.com/wp-content/uploads/2016/04/Flashpoint_HackingForISIS_April2016.pdf.</li>\n</ul>\n",
         "types_of_attacker": [
            "Cyber Terrorist"
         ],
         "related_adversaries": [
            {
               "name": "UCC",
               "relationship": "alias"
            },
            {
               "name": "United Cyber Caliphate",
               "relationship": "alias"
            }
         ],
         "related_attack_patterns": [
            {
               "name": "T1003 - Credential Dumping",
               "relationship": "uses"
            },
            {
               "name": "T1072 - Third-party Software",
               "relationship": "uses"
            },
            {
               "name": "T1110 - Brute Force",
               "relationship": "uses"
            },
            {
               "name": "T1114 - Email Collection",
               "relationship": "uses"
            },
            {
               "name": "T1491 - Defacement",
               "relationship": "uses"
            },
            {
               "name": "T1499 - Endpoint Denial of Service",
               "relationship": "uses"
            }
         ],
         "related_malwares": [],
         "related_tools": [
            {
               "name": "Ancalog Exploit Builder",
               "relationship": "uses"
            },
            {
               "name": "Caliphate Cannon",
               "relationship": "uses"
            },
            {
               "name": "Multy BruteForce Facebook",
               "relationship": "uses"
            },
            {
               "name": "Telegram",
               "relationship": "uses"
            },
            {
               "name": "WhatsApp",
               "relationship": "uses"
            }
         ],
         "related_vulnerabilities": []
      },
      {
         "version": 2,
         "attributes": [],
         "sources": [
            {
               "name": "Thales",
               "TLP": "WHITE",
               "object_type": "ThalesSource"
            }
         ],
         "created": "2019-09-03T07:31:52Z",
         "related_reports": [],
         "internal_attributes": [],
         "modified": "2019-09-03T07:31:52Z",
         "id": null,
         "object_type": "ThalesCampaign",
         "name": "January 2015 The Albuquerque Journal and Maryland\u2019s WBOC Hacking",
         "description": "",
         "happened_at": "2015-01-01T09:42:00Z",
         "related_adversaries": [
            {
               "name": "ATK133",
               "relationship": "attributed-to"
            }
         ],
         "related_attack_patterns": [],
         "related_malwares": [],
         "related_tools": [],
         "related_vulnerabilities": []
      },
      {
         "version": 2,
         "attributes": [],
         "sources": [
            {
               "name": "Thales",
               "TLP": "WHITE",
               "object_type": "ThalesSource"
            }
         ],
         "created": "2019-09-03T07:33:05Z",
         "related_reports": [],
         "internal_attributes": [],
         "modified": "2019-09-03T07:33:05Z",
         "id": null,
         "object_type": "ThalesCampaign",
         "name": "January 2015 - Malaysia Airlines Website Attack",
         "description": "",
         "happened_at": "2015-01-01T09:43:00Z",
         "related_adversaries": [
            {
               "name": "ATK133",
               "relationship": "attributed-to"
            }
         ],
         "related_attack_patterns": [],
         "related_malwares": [],
         "related_tools": [],
         "related_vulnerabilities": []
      },
      {
         "version": 2,
         "attributes": [],
         "sources": [
            {
               "name": "Thales",
               "TLP": "WHITE",
               "object_type": "ThalesSource"
            }
         ],
         "created": "2019-09-03T07:38:08Z",
         "related_reports": [],
         "internal_attributes": [],
         "modified": "2019-09-03T07:38:08Z",
         "id": null,
         "object_type": "ThalesCampaign",
         "name": "February 2015 - Newsweek magazine Twitter account hijacked",
         "description": "",
         "happened_at": "2015-02-01T09:44:00Z",
         "related_adversaries": [
            {
               "name": "ATK133",
               "relationship": "attributed-to"
            }
         ],
         "related_attack_patterns": [],
         "related_malwares": [],
         "related_tools": [],
         "related_vulnerabilities": []
      },
      {
         "version": 2,
         "attributes": [],
         "sources": [
            {
               "name": "Thales",
               "TLP": "WHITE",
               "object_type": "ThalesSource"
            }
         ],
         "created": "2019-09-03T07:39:08Z",
         "related_reports": [],
         "internal_attributes": [],
         "modified": "2019-09-03T07:39:08Z",
         "id": null,
         "object_type": "ThalesCampaign",
         "name": "September 2015 - UK Government Email Hacking",
         "description": "",
         "happened_at": "2015-09-01T09:49:00Z",
         "related_adversaries": [
            {
               "name": "ATK133",
               "relationship": "attributed-to"
            }
         ],
         "related_attack_patterns": [],
         "related_malwares": [],
         "related_tools": [],
         "related_vulnerabilities": []
      },
      {
         "version": 2,
         "attributes": [],
         "sources": [
            {
               "name": "Thales",
               "TLP": "WHITE",
               "object_type": "ThalesSource"
            }
         ],
         "created": "2019-09-03T07:40:09Z",
         "related_reports": [],
         "internal_attributes": [],
         "modified": "2019-09-03T07:40:09Z",
         "id": null,
         "object_type": "ThalesCampaign",
         "name": "April 2016 - Australian Websites Hacking",
         "description": "",
         "happened_at": "2016-04-01T09:50:00Z",
         "related_adversaries": [
            {
               "name": "ATK133",
               "relationship": "attributed-to"
            }
         ],
         "related_attack_patterns": [],
         "related_malwares": [],
         "related_tools": [],
         "related_vulnerabilities": []
      },
      {
         "version": 2,
         "attributes": [],
         "sources": [
            {
               "name": "Thales",
               "TLP": "WHITE",
               "object_type": "ThalesSource"
            }
         ],
         "created": "2019-09-03T07:41:16Z",
         "related_reports": [],
         "internal_attributes": [],
         "modified": "2019-09-03T07:41:16Z",
         "id": null,
         "object_type": "ThalesCampaign",
         "name": "April 2017 - 8K Kill List Release",
         "description": "",
         "happened_at": "2017-04-01T09:51:00Z",
         "related_adversaries": [
            {
               "name": "ATK133",
               "relationship": "attributed-to"
            }
         ],
         "related_attack_patterns": [],
         "related_malwares": [],
         "related_tools": [],
         "related_vulnerabilities": []
      },
      {
         "version": 2,
         "attributes": [],
         "sources": [
            {
               "name": "Thales",
               "TLP": "WHITE",
               "object_type": "ThalesSource"
            }
         ],
         "created": "2019-09-03T07:42:24Z",
         "related_reports": [],
         "internal_attributes": [],
         "modified": "2019-09-03T07:42:24Z",
         "id": null,
         "object_type": "ThalesCampaign",
         "name": "October 2018 - ISIS Launch Cracking Software",
         "description": "",
         "happened_at": "2018-10-01T09:52:00Z",
         "related_adversaries": [
            {
               "name": "ATK133",
               "relationship": "attributed-to"
            }
         ],
         "related_attack_patterns": [],
         "related_malwares": [],
         "related_tools": [],
         "related_vulnerabilities": []
      }
   ]
}