{
   "version": 2,
   "object_type": "ThalesContainer",
   "objects": [
      {
         "version": 2,
         "attributes": [
            {
               "name": "Target Sector",
               "source": {
                  "name": "Thales",
                  "TLP": "WHITE",
                  "object_type": "ThalesSource"
               },
               "value": "Political Organizations",
               "object_type": "ThalesAttribute"
            },
            {
               "name": "Target Sector",
               "source": {
                  "name": "Thales",
                  "TLP": "WHITE",
                  "object_type": "ThalesSource"
               },
               "value": "Media",
               "object_type": "ThalesAttribute"
            },
            {
               "name": "Target Sector",
               "source": {
                  "name": "Thales",
                  "TLP": "WHITE",
                  "object_type": "ThalesSource"
               },
               "value": "International Organizations",
               "object_type": "ThalesAttribute"
            },
            {
               "name": "Target Country",
               "source": {
                  "name": "Thales",
                  "TLP": "WHITE",
                  "object_type": "ThalesSource"
               },
               "value": "Morocco",
               "object_type": "ThalesAttribute"
            },
            {
               "name": "Target Country",
               "source": {
                  "name": "Thales",
                  "TLP": "WHITE",
                  "object_type": "ThalesSource"
               },
               "value": "Lebanon",
               "object_type": "ThalesAttribute"
            },
            {
               "name": "Target Country",
               "source": {
                  "name": "Thales",
                  "TLP": "WHITE",
                  "object_type": "ThalesSource"
               },
               "value": "Kuwait",
               "object_type": "ThalesAttribute"
            },
            {
               "name": "Target Country",
               "source": {
                  "name": "Thales",
                  "TLP": "WHITE",
                  "object_type": "ThalesSource"
               },
               "value": "Jordan",
               "object_type": "ThalesAttribute"
            },
            {
               "name": "Target Country",
               "source": {
                  "name": "Thales",
                  "TLP": "WHITE",
                  "object_type": "ThalesSource"
               },
               "value": "Iraq",
               "object_type": "ThalesAttribute"
            },
            {
               "name": "Target Country",
               "source": {
                  "name": "Thales",
                  "TLP": "WHITE",
                  "object_type": "ThalesSource"
               },
               "value": "Iran, Islamic Republic Of",
               "object_type": "ThalesAttribute"
            },
            {
               "name": "Target Country",
               "source": {
                  "name": "Thales",
                  "TLP": "WHITE",
                  "object_type": "ThalesSource"
               },
               "value": "Egypt",
               "object_type": "ThalesAttribute"
            },
            {
               "name": "TLP",
               "source": {
                  "name": "Thales",
                  "TLP": "WHITE",
                  "object_type": "ThalesSource"
               },
               "value": "WHITE",
               "object_type": "ThalesAttribute"
            },
            {
               "name": "Reference",
               "source": {
                  "name": "Thales",
                  "TLP": "WHITE",
                  "object_type": "ThalesSource"
               },
               "value": "https://securelist.com/whos-who-in-the-zoo/85394/",
               "object_type": "ThalesAttribute"
            },
            {
               "name": "Reference",
               "source": {
                  "name": "Thales",
                  "TLP": "WHITE",
                  "object_type": "ThalesSource"
               },
               "value": "https://media.kasperskycontenthub.com/wp-content/uploads/sites/43/2018/05/24122414/ZooPark_for_public_final_edited.pdf",
               "object_type": "ThalesAttribute"
            },
            {
               "name": "Reference",
               "source": {
                  "name": "Thales",
                  "TLP": "WHITE",
                  "object_type": "ThalesSource"
               },
               "value": "Saber lion organization (APT-C-38) attack activity revealed",
               "object_type": "ThalesAttribute"
            },
            {
               "name": "Motivation",
               "source": {
                  "name": "Thales",
                  "TLP": "WHITE",
                  "object_type": "ThalesSource"
               },
               "value": "Information theft",
               "object_type": "ThalesAttribute"
            },
            {
               "name": "Motivation",
               "source": {
                  "name": "Thales",
                  "TLP": "WHITE",
                  "object_type": "ThalesSource"
               },
               "value": "Espionage",
               "object_type": "ThalesAttribute"
            }
         ],
         "sources": [
            {
               "name": "Thales",
               "TLP": "WHITE",
               "object_type": "ThalesSource"
            }
         ],
         "created": "2019-07-05T08:49:55Z",
         "related_reports": [],
         "internal_attributes": [],
         "modified": "2019-07-05T08:49:55Z",
         "id": "97f2be56-aa27-51b2-9788-4aa577cce0d9",
         "object_type": "ThalesAdversary",
         "name": "ATK112",
         "description": "<p style=\"text-align: justify;\"><strong>ATK112</strong> (<em>aka: ZooPark by Kaspersky</em>) is a group that mostly uses an Android Malware, &quot;UnitMM&quot;, which saw multiple iterations. This group was first noticed in June 2015, and is still active to 2018.</p>\n\n<p style=\"text-align: justify;\">The group mostly focuses on espionage, and has seen technical progresses since its debuts: While it first used forked commercial software in order to accomplish its deeds, the group extended it and brought it to a fully-fledged espionage platform.<br />\nAccording to 360 Beaconlab however, the group purchases its malicious software from a commercial development group, nicknamed &quot;Apasec&quot;.</p>\n\n<p style=\"text-align: justify;\">Hackers mainly used&nbsp;waterhole attacks as&nbsp;infection vector, the experts discovered several news websites that have been compromised to redirect visitors to a downloading site&nbsp;that delivered the final malware.</p>\n\n<p style=\"text-align: justify;\">The group deploys its tools through multiple main vectors: Telegram channels and watering holes.<br />\nIndeed, it regularly uses compromised websites in order to gain access its targets.</p>\n\n<p style=\"text-align: justify;\">The group also started using an exclusive Windows malware, nicknamed &quot;SpecialSaber&quot;.</p>\n\n<p style=\"text-align: justify;\">&nbsp;</p>\n\n<p style=\"text-align: justify;\">&nbsp;</p>\n\n<p style=\"text-align: justify;\">&nbsp;</p>\n",
         "types_of_attacker": [
            "State Sponsored"
         ],
         "related_adversaries": [
            {
               "name": "APT-C-38",
               "relationship": "alias"
            },
            {
               "name": "ZooPark",
               "relationship": "alias"
            }
         ],
         "related_attack_patterns": [
            {
               "name": "T1003 - Credential Dumping",
               "relationship": "uses"
            },
            {
               "name": "T1022 - Data Encrypted",
               "relationship": "uses"
            },
            {
               "name": "T1041 - Exfiltration Over Command and Control Channel",
               "relationship": "uses"
            },
            {
               "name": "T1043 - Commonly Used Port",
               "relationship": "uses"
            },
            {
               "name": "T1056 - Input Capture",
               "relationship": "uses"
            },
            {
               "name": "T1057 - Process Discovery",
               "relationship": "uses"
            },
            {
               "name": "T1074 - Data Staged",
               "relationship": "uses"
            },
            {
               "name": "T1083 - File and Directory Discovery",
               "relationship": "uses"
            },
            {
               "name": "T1089 - Disabling Security Tools",
               "relationship": "uses"
            },
            {
               "name": "T1113 - Screen Capture",
               "relationship": "uses"
            },
            {
               "name": "T1114 - Email Collection",
               "relationship": "uses"
            }
         ],
         "related_malwares": [
            {
               "name": "SpecialSaber",
               "relationship": "uses"
            },
            {
               "name": "UnitMM",
               "relationship": "uses"
            }
         ],
         "related_tools": [],
         "related_vulnerabilities": []
      },
      {
         "version": 2,
         "attributes": [],
         "sources": [
            {
               "name": "Thales",
               "TLP": "WHITE",
               "object_type": "ThalesSource"
            }
         ],
         "created": "2019-08-08T09:13:45Z",
         "related_reports": [],
         "internal_attributes": [],
         "modified": "2019-08-08T09:13:45Z",
         "id": null,
         "object_type": "ThalesCampaign",
         "name": "APT-C-38 targets Middle East since 2015",
         "description": "",
         "happened_at": "2015-01-08T11:11:00Z",
         "related_adversaries": [
            {
               "name": "ATK112",
               "relationship": "attributed-to"
            }
         ],
         "related_attack_patterns": [],
         "related_malwares": [],
         "related_tools": [],
         "related_vulnerabilities": []
      }
   ]
}