{
   "version": 2,
   "object_type": "ThalesContainer",
   "objects": [
      {
         "version": 2,
         "attributes": [
            {
               "name": "Target Sector",
               "source": {
                  "name": "Thales",
                  "TLP": "WHITE",
                  "object_type": "ThalesSource"
               },
               "value": "WATER DISTRIBUTION AND SUPPLY",
               "object_type": "ThalesAttribute"
            },
            {
               "name": "Target Sector",
               "source": {
                  "name": "Thales",
                  "TLP": "WHITE",
                  "object_type": "ThalesSource"
               },
               "value": "Naval",
               "object_type": "ThalesAttribute"
            },
            {
               "name": "Target Sector",
               "source": {
                  "name": "Thales",
                  "TLP": "WHITE",
                  "object_type": "ThalesSource"
               },
               "value": "Military",
               "object_type": "ThalesAttribute"
            },
            {
               "name": "Target Sector",
               "source": {
                  "name": "Thales",
                  "TLP": "WHITE",
                  "object_type": "ThalesSource"
               },
               "value": "Media",
               "object_type": "ThalesAttribute"
            },
            {
               "name": "Target Sector",
               "source": {
                  "name": "Thales",
                  "TLP": "WHITE",
                  "object_type": "ThalesSource"
               },
               "value": "Maritime Compagnies",
               "object_type": "ThalesAttribute"
            },
            {
               "name": "Target Sector",
               "source": {
                  "name": "Thales",
                  "TLP": "WHITE",
                  "object_type": "ThalesSource"
               },
               "value": "High-Tech",
               "object_type": "ThalesAttribute"
            },
            {
               "name": "Target Sector",
               "source": {
                  "name": "Thales",
                  "TLP": "WHITE",
                  "object_type": "ThalesSource"
               },
               "value": "GOVERNMENT AND ADMINISTRATION agencies",
               "object_type": "ThalesAttribute"
            },
            {
               "name": "Target Sector",
               "source": {
                  "name": "Thales",
                  "TLP": "WHITE",
                  "object_type": "ThalesSource"
               },
               "value": "Energy",
               "object_type": "ThalesAttribute"
            },
            {
               "name": "Target Sector",
               "source": {
                  "name": "Thales",
                  "TLP": "WHITE",
                  "object_type": "ThalesSource"
               },
               "value": "Defense",
               "object_type": "ThalesAttribute"
            },
            {
               "name": "Target Sector",
               "source": {
                  "name": "Thales",
                  "TLP": "WHITE",
                  "object_type": "ThalesSource"
               },
               "value": "Aerospace",
               "object_type": "ThalesAttribute"
            },
            {
               "name": "Target Country",
               "source": {
                  "name": "Thales",
                  "TLP": "WHITE",
                  "object_type": "ThalesSource"
               },
               "value": "Uzbekistan",
               "object_type": "ThalesAttribute"
            },
            {
               "name": "Target Country",
               "source": {
                  "name": "Thales",
                  "TLP": "WHITE",
                  "object_type": "ThalesSource"
               },
               "value": "United States Of America",
               "object_type": "ThalesAttribute"
            },
            {
               "name": "Target Country",
               "source": {
                  "name": "Thales",
                  "TLP": "WHITE",
                  "object_type": "ThalesSource"
               },
               "value": "United Kingdom Of Great Britain And Northern Ireland",
               "object_type": "ThalesAttribute"
            },
            {
               "name": "Target Country",
               "source": {
                  "name": "Thales",
                  "TLP": "WHITE",
                  "object_type": "ThalesSource"
               },
               "value": "Turkey",
               "object_type": "ThalesAttribute"
            },
            {
               "name": "Target Country",
               "source": {
                  "name": "Thales",
                  "TLP": "WHITE",
                  "object_type": "ThalesSource"
               },
               "value": "Tajikistan",
               "object_type": "ThalesAttribute"
            },
            {
               "name": "Target Country",
               "source": {
                  "name": "Thales",
                  "TLP": "WHITE",
                  "object_type": "ThalesSource"
               },
               "value": "Taiwan",
               "object_type": "ThalesAttribute"
            },
            {
               "name": "Target Country",
               "source": {
                  "name": "Thales",
                  "TLP": "WHITE",
                  "object_type": "ThalesSource"
               },
               "value": "Sri Lanka",
               "object_type": "ThalesAttribute"
            },
            {
               "name": "Target Country",
               "source": {
                  "name": "Thales",
                  "TLP": "WHITE",
                  "object_type": "ThalesSource"
               },
               "value": "Singapore",
               "object_type": "ThalesAttribute"
            },
            {
               "name": "Target Country",
               "source": {
                  "name": "Thales",
                  "TLP": "WHITE",
                  "object_type": "ThalesSource"
               },
               "value": "Russian Federation",
               "object_type": "ThalesAttribute"
            },
            {
               "name": "Target Country",
               "source": {
                  "name": "Thales",
                  "TLP": "WHITE",
                  "object_type": "ThalesSource"
               },
               "value": "Philippines",
               "object_type": "ThalesAttribute"
            },
            {
               "name": "Target Country",
               "source": {
                  "name": "Thales",
                  "TLP": "WHITE",
                  "object_type": "ThalesSource"
               },
               "value": "Pakistan",
               "object_type": "ThalesAttribute"
            },
            {
               "name": "Target Country",
               "source": {
                  "name": "Thales",
                  "TLP": "WHITE",
                  "object_type": "ThalesSource"
               },
               "value": "Netherlands",
               "object_type": "ThalesAttribute"
            },
            {
               "name": "Target Country",
               "source": {
                  "name": "Thales",
                  "TLP": "WHITE",
                  "object_type": "ThalesSource"
               },
               "value": "Mongolia",
               "object_type": "ThalesAttribute"
            },
            {
               "name": "Target Country",
               "source": {
                  "name": "Thales",
                  "TLP": "WHITE",
                  "object_type": "ThalesSource"
               },
               "value": "Malaysia",
               "object_type": "ThalesAttribute"
            },
            {
               "name": "Target Country",
               "source": {
                  "name": "Thales",
                  "TLP": "WHITE",
                  "object_type": "ThalesSource"
               },
               "value": "Korea, Republic Of",
               "object_type": "ThalesAttribute"
            },
            {
               "name": "Target Country",
               "source": {
                  "name": "Thales",
                  "TLP": "WHITE",
                  "object_type": "ThalesSource"
               },
               "value": "Kazakhstan",
               "object_type": "ThalesAttribute"
            },
            {
               "name": "Target Country",
               "source": {
                  "name": "Thales",
                  "TLP": "WHITE",
                  "object_type": "ThalesSource"
               },
               "value": "Japan",
               "object_type": "ThalesAttribute"
            },
            {
               "name": "Target Country",
               "source": {
                  "name": "Thales",
                  "TLP": "WHITE",
                  "object_type": "ThalesSource"
               },
               "value": "Italy",
               "object_type": "ThalesAttribute"
            },
            {
               "name": "Target Country",
               "source": {
                  "name": "Thales",
                  "TLP": "WHITE",
                  "object_type": "ThalesSource"
               },
               "value": "India",
               "object_type": "ThalesAttribute"
            },
            {
               "name": "Target Country",
               "source": {
                  "name": "Thales",
                  "TLP": "WHITE",
                  "object_type": "ThalesSource"
               },
               "value": "Hong Kong",
               "object_type": "ThalesAttribute"
            },
            {
               "name": "Target Country",
               "source": {
                  "name": "Thales",
                  "TLP": "WHITE",
                  "object_type": "ThalesSource"
               },
               "value": "Germany",
               "object_type": "ThalesAttribute"
            },
            {
               "name": "Target Country",
               "source": {
                  "name": "Thales",
                  "TLP": "WHITE",
                  "object_type": "ThalesSource"
               },
               "value": "France",
               "object_type": "ThalesAttribute"
            },
            {
               "name": "Target Country",
               "source": {
                  "name": "Thales",
                  "TLP": "WHITE",
                  "object_type": "ThalesSource"
               },
               "value": "China",
               "object_type": "ThalesAttribute"
            },
            {
               "name": "Target Country",
               "source": {
                  "name": "Thales",
                  "TLP": "WHITE",
                  "object_type": "ThalesSource"
               },
               "value": "Canada",
               "object_type": "ThalesAttribute"
            },
            {
               "name": "Target Country",
               "source": {
                  "name": "Thales",
                  "TLP": "WHITE",
                  "object_type": "ThalesSource"
               },
               "value": "Belarus",
               "object_type": "ThalesAttribute"
            },
            {
               "name": "Target Country",
               "source": {
                  "name": "Thales",
                  "TLP": "WHITE",
                  "object_type": "ThalesSource"
               },
               "value": "Austria",
               "object_type": "ThalesAttribute"
            },
            {
               "name": "Target Country",
               "source": {
                  "name": "Thales",
                  "TLP": "WHITE",
                  "object_type": "ThalesSource"
               },
               "value": "Australia",
               "object_type": "ThalesAttribute"
            },
            {
               "name": "TLP",
               "source": {
                  "name": "Thales",
                  "TLP": "WHITE",
                  "object_type": "ThalesSource"
               },
               "value": "WHITE",
               "object_type": "ThalesAttribute"
            },
            {
               "name": "Reference",
               "source": {
                  "name": "Thales",
                  "TLP": "WHITE",
                  "object_type": "ThalesSource"
               },
               "value": "https://www.zdnet.com/article/ancient-icefog-apt-malware-spotted-again-in-new-wave-of-attacks/",
               "object_type": "ThalesAttribute"
            },
            {
               "name": "Reference",
               "source": {
                  "name": "Thales",
                  "TLP": "WHITE",
                  "object_type": "ThalesSource"
               },
               "value": "https://speakerdeck.com/ashley920/into-the-fog-the-return-of-icefog-apt",
               "object_type": "ThalesAttribute"
            },
            {
               "name": "Reference",
               "source": {
                  "name": "Thales",
                  "TLP": "WHITE",
                  "object_type": "ThalesSource"
               },
               "value": "https://securelist.com/the-icefog-apt-hits-us-targets-with-java-backdoor/58209/",
               "object_type": "ThalesAttribute"
            },
            {
               "name": "Reference",
               "source": {
                  "name": "Thales",
                  "TLP": "WHITE",
                  "object_type": "ThalesSource"
               },
               "value": "https://media.kasperskycontenthub.com/wp-content/uploads/sites/58/2013/09/21182446/icefog.pdf",
               "object_type": "ThalesAttribute"
            },
            {
               "name": "Origin",
               "source": {
                  "name": "Thales",
                  "TLP": "WHITE",
                  "object_type": "ThalesSource"
               },
               "value": "China",
               "object_type": "ThalesAttribute"
            },
            {
               "name": "Motivation",
               "source": {
                  "name": "Thales",
                  "TLP": "WHITE",
                  "object_type": "ThalesSource"
               },
               "value": "Espionage",
               "object_type": "ThalesAttribute"
            },
            {
               "name": "Language",
               "source": {
                  "name": "Thales",
                  "TLP": "WHITE",
                  "object_type": "ThalesSource"
               },
               "value": "Chinese",
               "object_type": "ThalesAttribute"
            }
         ],
         "sources": [
            {
               "name": "Thales",
               "TLP": "WHITE",
               "object_type": "ThalesSource"
            },
            {
               "name": "Thales",
               "TLP": "WHITE",
               "object_type": "ThalesSource"
            }
         ],
         "created": "2018-03-13T11:39:06Z",
         "related_reports": [],
         "internal_attributes": [],
         "modified": "2018-03-13T11:39:06Z",
         "id": "0113bb4e-24a9-589f-84e4-47c5ea187e8f",
         "object_type": "ThalesAdversary",
         "name": "ATK23",
         "description": "<p style=\"text-align:justify\"><strong>ATK23</strong> (aka: Icefog) is an Chinese cyber espionange group active since at least 2011. This group is described by Kaspersky as &quot;small, which a relative lack of complexity&quot; but they sucessfully compromised their targets which are mostly the defense contractors, industrial campanies, shipbuilding companies, telecommunication operators and medias in Japan, Taiwan and South Korea. This group used spearphishing emails exploiting CVE-2012-0158 and CVE-2012-1856 or containg a web link to Oracle Java exploits CVE-2013-0422 and CVE-2012-1723. It uses already known and patched vulnerabilities. Its lure Word documents contains pictures of a woman or are related to political actuality. This group also used HLP files abusing Windows features to drop its malwares.</p>\n\n<p style=\"text-align:justify\">After the initial access, the group list folder on the disk, IP configuration and information about the victim network. If the victim is interesting it deploys additional softwares such as backdoor and lateral movement tools to dump password from Windows, IE or Outlook and a legitimage RAR compressing tool. It also try tool steal Windows address books (.WAB files) and XSL, DOC or HWP documents. The stolen document are compressed and split into multiple parts using WinRAR or CABARC to be transfered to the C2 server.</p>\n\n<p style=\"text-align:justify\">The lateral movment is done using multiple tools to dump credential from browsers or Outlook.</p>\n\n<p style=\"text-align:justify\">The C2 server are hosted on shared hosting plateforms and dedicated hosting. Their C2 infrastructure is very ephemeral. Icefog seems to use a &quot;hit and run&quot; strategy. They infects their victims, steal the data and the C2 infrastructure expires in few months. This strategy indicate that they knew what it his looking for. They did not maintain a persistent prensence on the compromised network when their goal is reached.</p>\n\n<p style=\"text-align:justify\">After the Kaspersky reports from September 2013 and January 2014, the group desapeared. In 2015 after nearly a year of silence, new variants of the ICEFOG (ICEFOG-M and ICEFOF-P) have been found, used during campaign which targets do not match with previously seen campaign.</p>\n\n<p style=\"text-align:justify\"><em><span style=\"color:#c0392b\">NB: AccoRding to the researcher Chi-en Shen from FireEye, the new variants of the ICEFOG backdoor are used by multiple Chinese groups (APT9, APT15, Goblin Panda and another group name &quot;Temp Group A&quot; which can actually be the original Icefog group). The conclusion is that the ICEFOG backdoor cannot be used to attribute a campaign.</span></em></p>\n",
         "types_of_attacker": [
            "State Sponsored"
         ],
         "related_adversaries": [
            {
               "name": "Dagger Panda",
               "relationship": "alias"
            },
            {
               "name": "Ice Fog",
               "relationship": "alias"
            },
            {
               "name": "Icefog",
               "relationship": "alias"
            }
         ],
         "related_attack_patterns": [
            {
               "name": "T1002 - Data Compressed",
               "relationship": "uses"
            },
            {
               "name": "T1005 - Data from Local System",
               "relationship": "uses"
            },
            {
               "name": "T1016 - System Network Configuration Discovery",
               "relationship": "uses"
            },
            {
               "name": "T1030 - Data Transfer Size Limits",
               "relationship": "uses"
            },
            {
               "name": "T1038 - DLL Search Order Hijacking",
               "relationship": "uses"
            },
            {
               "name": "T1043 - Commonly Used Port",
               "relationship": "uses"
            },
            {
               "name": "T1064 - Scripting",
               "relationship": "uses"
            },
            {
               "name": "T1065 - Uncommonly Used Port",
               "relationship": "uses"
            },
            {
               "name": "T1071 - Application Layer Protocol",
               "relationship": "uses"
            },
            {
               "name": "T1071 - Standard Application Layer Protocol",
               "relationship": "uses"
            },
            {
               "name": "T1083 - File and Directory Discovery",
               "relationship": "uses"
            },
            {
               "name": "T1140 - Deobfuscate/Decode Files or Information",
               "relationship": "uses"
            },
            {
               "name": "T1192 - Spearphishing Link",
               "relationship": "uses"
            },
            {
               "name": "T1193 - Spearphishing Attachment",
               "relationship": "uses"
            },
            {
               "name": "T1204 - User Execution",
               "relationship": "uses"
            },
            {
               "name": "T1218.001 - Compiled HTML File",
               "relationship": "uses"
            },
            {
               "name": "T1319 - Obfuscate or encrypt code",
               "relationship": "uses"
            }
         ],
         "related_malwares": [
            {
               "name": "8.t Dropper",
               "relationship": "uses"
            },
            {
               "name": "ICEFOG",
               "relationship": "uses"
            },
            {
               "name": "JavaFog",
               "relationship": "uses"
            },
            {
               "name": "MacFog",
               "relationship": "uses"
            }
         ],
         "related_tools": [
            {
               "name": "CABARC",
               "relationship": "uses"
            },
            {
               "name": "WinRAR",
               "relationship": "uses"
            }
         ],
         "related_vulnerabilities": [
            {
               "name": "CVE-2012-0158",
               "relationship": "targets"
            },
            {
               "name": "CVE-2012-1723",
               "relationship": "targets"
            },
            {
               "name": "CVE-2012-1856",
               "relationship": "targets"
            },
            {
               "name": "CVE-2013-0422",
               "relationship": "targets"
            }
         ]
      },
      {
         "version": 2,
         "attributes": [],
         "sources": [
            {
               "name": "Thales",
               "TLP": "WHITE",
               "object_type": "ThalesSource"
            }
         ],
         "created": "2019-08-29T07:57:41Z",
         "related_reports": [],
         "internal_attributes": [],
         "modified": "2019-09-18T07:57:46Z",
         "id": null,
         "object_type": "ThalesCampaign",
         "name": "Ice Fog campaign against Japan, South Korea and Taiwan between 2011 to 2013",
         "description": "",
         "happened_at": "2011-01-01T09:56:00Z",
         "related_adversaries": [
            {
               "name": "ATK23",
               "relationship": "attributed-to"
            }
         ],
         "related_attack_patterns": [],
         "related_malwares": [],
         "related_tools": [],
         "related_vulnerabilities": []
      }
   ]
}