{
   "version": 2,
   "object_type": "ThalesContainer",
   "objects": [
      {
         "version": 2,
         "attributes": [
            {
               "name": "Target Sector",
               "source": {
                  "name": "Thales",
                  "TLP": "WHITE",
                  "object_type": "ThalesSource"
               },
               "value": "Financial Services",
               "object_type": "ThalesAttribute"
            },
            {
               "name": "TLP",
               "source": {
                  "name": "Thales",
                  "TLP": "WHITE",
                  "object_type": "ThalesSource"
               },
               "value": "WHITE",
               "object_type": "ThalesAttribute"
            },
            {
               "name": "Origin",
               "source": {
                  "name": "Thales",
                  "TLP": "WHITE",
                  "object_type": "ThalesSource"
               },
               "value": "Latin America",
               "object_type": "ThalesAttribute"
            },
            {
               "name": "Origin",
               "source": {
                  "name": "Thales",
                  "TLP": "WHITE",
                  "object_type": "ThalesSource"
               },
               "value": "Brazil",
               "object_type": "ThalesAttribute"
            }
         ],
         "sources": [
            {
               "name": "Thales",
               "TLP": "WHITE",
               "object_type": "ThalesSource"
            }
         ],
         "created": "2021-05-27T08:43:32Z",
         "related_reports": [],
         "internal_attributes": [],
         "modified": "2021-05-27T08:43:32Z",
         "id": "d2a6cae9-0177-5a66-9592-5006a450ea4c",
         "object_type": "ThalesAdversary",
         "name": "ATK237",
         "description": "<p>Brazilian cybercrime was oriented until 2011 against its compatriots before going international. The analysis of the malware that makes up this threat led to name TETRADE 4 malware families, believing that they are the result of a Brazilian banking group / operation that is evolving its capabilities by targeting banking users abroad:</p>\n\n<p><strong>GUILDMA (aka Astaroth)&nbsp;:</strong></p>\n\n<p><u>2015</u>: Spread primarily through phishing emails disguised as legitimate business communications or notifications.</p>\n\n<p>Acquisition of several new evasion techniques, making it difficult to detect.</p>\n\n<p><u>2019</u>, malicious payload is hidden in victim&#39;s system with the help of special file format.</p>\n\n<p>Storage of its communication with the control server in an encrypted format on the Facebook and YouTube pages. THEREFORE difficulty in detecting communication traffic as malicious and since no antivirus is blocking either of these websites, it ensures that the controlling server can execute commands without interruption.</p>\n\n<p><strong>GRANDEIRO</strong></p>\n\n<p><u>2016 </u>- First present in Brazil, it extended its attacks in Latin America then in Europe.</p>\n\n<p>Among the tetrades, it is the most widespread.</p>\n\n<p>It focuses its efforts on evasion of detection using modular installers.</p>\n\n<p>The malware allows attackers to conduct fraudulent banking transactions by using victims&#39; computers to bypass security measures used by banking institutions.</p>\n\n<p><strong>JAVALI (aka Ousaban) </strong></p>\n\n<p><u>2017</u>: Uses multistage malware and distributes its initial payload via phishing emails, as an attachment or link to a website. These emails include an MSI (Microsoft Installer) file with an embedded Visual Basic Script that downloads the final malicious payload from a remote C2; it also uses DLL sideloading and several layers of obfuscation to hide its malicious activities from analysts and security solutions.</p>\n\n<p><strong>MELCOZ</strong></p>\n\n<p><u>2018 </u>- Internationalization of the threat of this malware after having evolved for years in Brazil</p>\n\n<p>New professionally executed, scalable and persistent operations, creating various versions of the malware, with significant infrastructure improvements that allow cybercriminal groups from different countries to collaborate.</p>\n\n<p>The attacks seem to focus on the Latin American victims although casualties from all over the world are possible, the banks being international.</p>\n\n<p>Each campaign runs on its unique identifier, which varies according to the versions and CnCs used.</p>\n\n<p>Brazilian cyber crime is prolific, since then Android malware like Ghimob has appeared, directly linked to GUILDMA. The tetrades are just a small part of the threat from Latin America.</p>\n\n<p>It is impossible to know or recognize who are the groups or individuals behind its malware. It is commonly accepted that there is a community which, although competing, shares a lot of information and infrastructures.</p>\n\n<p>&nbsp;</p>\n\n<h3>Reference:</h3>\n\n<p><em><a href=\"https://securityaffairs.co/wordpress/106126/malware/tetrade-brazilian-banking-troja.html\">https://securityaffairs.co/wordpress/106126/malware/tetrade-brazilian-banking-troja.html</a></em></p>\n\n<p><a href=\"https://www.kaspersky.com/about/press-releases/2020_tetrade-brazilian-cybercriminals-take-the-next-generation-of-banking-malware-global\"><em>https://www.kaspersky.com/about/press-releases/2020_tetrade-brazilian-cybercriminals-take-the-next-generation-of-banking-malware-global</em></a></p>\n\n<p><em><a href=\"https://securityaffairs.co/wordpress/110671/cyber-crime/ghimob-banking-trojan.html\">https://securityaffairs.co/wordpress/110671/cyber-crime/ghimob-banking-trojan.html</a></em></p>\n\n<p><a href=\"https://securelist.com/brazilian-trojans-beyond-borders/30879/\"><em>https://securelist.com/brazilian-trojans-beyond-borders/30879/</em></a></p>\n\n<p>&nbsp;</p>\n",
         "types_of_attacker": [
            "Cyber Criminal"
         ],
         "related_adversaries": [
            {
               "name": "Grandoreiro Operator",
               "relationship": "alias"
            },
            {
               "name": "Guildma / Astaroth Operator",
               "relationship": "alias"
            },
            {
               "name": "Javali Operator",
               "relationship": "alias"
            },
            {
               "name": "Melcoz Operator",
               "relationship": "alias"
            },
            {
               "name": "TETRADE",
               "relationship": "alias"
            }
         ],
         "related_attack_patterns": [
            {
               "name": "T1027 - Obfuscated Files or Information",
               "relationship": "uses"
            },
            {
               "name": "T1036 - Masquerading",
               "relationship": "uses"
            },
            {
               "name": "T1055 - Process Injection",
               "relationship": "uses"
            },
            {
               "name": "T1057 - Process Discovery",
               "relationship": "uses"
            },
            {
               "name": "T1071 - Application Layer Protocol",
               "relationship": "uses"
            },
            {
               "name": "T1083 - File and Directory Discovery",
               "relationship": "uses"
            },
            {
               "name": "T1095 - Non-Application Layer Protocol",
               "relationship": "uses"
            },
            {
               "name": "T1102 - Web Service",
               "relationship": "uses"
            },
            {
               "name": "T1105 - Ingress Tool Transfer",
               "relationship": "uses"
            },
            {
               "name": "T1132 - Data Encoding",
               "relationship": "uses"
            },
            {
               "name": "T1204 - User Execution",
               "relationship": "uses"
            },
            {
               "name": "T1218 - Signed Binary Proxy Execution",
               "relationship": "uses"
            },
            {
               "name": "T1497 - Virtualization/Sandbox Evasion",
               "relationship": "uses"
            },
            {
               "name": "T1555 - Credentials from Password Stores",
               "relationship": "uses"
            },
            {
               "name": "T1566 - Phishing",
               "relationship": "uses"
            },
            {
               "name": "T1573 - Encrypted Channel",
               "relationship": "uses"
            },
            {
               "name": "T1574 - Hijack Execution Flow",
               "relationship": "uses"
            }
         ],
         "related_malwares": [
            {
               "name": "Astaroth",
               "relationship": "uses"
            },
            {
               "name": "Ghimob",
               "relationship": "uses"
            },
            {
               "name": "Grandoreiro",
               "relationship": "uses"
            },
            {
               "name": "Guildma",
               "relationship": "uses"
            },
            {
               "name": "Javali",
               "relationship": "uses"
            },
            {
               "name": "Melcoz",
               "relationship": "uses"
            }
         ],
         "related_tools": [],
         "related_vulnerabilities": []
      },
      {
         "version": 2,
         "attributes": [],
         "sources": [
            {
               "name": "ESET",
               "TLP": "WHITE",
               "object_type": "ThalesSource"
            }
         ],
         "created": "2021-08-26T12:13:55Z",
         "related_reports": [],
         "internal_attributes": [],
         "modified": "2021-08-26T12:13:55Z",
         "id": "d95093bd-8cd9-5c4e-a243-551628ec4cec",
         "object_type": "ThalesCampaign",
         "name": "2021 - ATK237 (Grandoreiro ) campaign against France",
         "description": "",
         "happened_at": "2021-01-28T14:13:00Z",
         "related_adversaries": [
            {
               "name": "ATK237",
               "relationship": "attributed-to"
            },
            {
               "name": "Grandoreiro Operator",
               "relationship": "attributed-to"
            }
         ],
         "related_attack_patterns": [],
         "related_malwares": [],
         "related_tools": [],
         "related_vulnerabilities": []
      },
      {
         "version": 2,
         "attributes": [],
         "sources": [
            {
               "name": "Thales",
               "TLP": "WHITE",
               "object_type": "ThalesSource"
            },
            {
               "name": "ESET",
               "TLP": "WHITE",
               "object_type": "ThalesSource"
            },
            {
               "name": "CERT-IST",
               "TLP": "WHITE",
               "object_type": "ThalesSource"
            }
         ],
         "created": "2021-08-26T12:16:46Z",
         "related_reports": [],
         "internal_attributes": [],
         "modified": "2021-08-26T12:16:46Z",
         "id": "5e1878ef-1434-5da5-95bf-d00b52556c21",
         "object_type": "ThalesCampaign",
         "name": "2021 - ATK237 (Javali) campaign against Mexico and Brazil",
         "description": "",
         "happened_at": "2021-02-17T14:17:00Z",
         "related_adversaries": [
            {
               "name": "ATK237",
               "relationship": "attributed-to"
            },
            {
               "name": "Javali Operator",
               "relationship": "attributed-to"
            }
         ],
         "related_attack_patterns": [],
         "related_malwares": [],
         "related_tools": [],
         "related_vulnerabilities": []
      },
      {
         "version": 2,
         "attributes": [],
         "sources": [
            {
               "name": "ESET",
               "TLP": "WHITE",
               "object_type": "ThalesSource"
            }
         ],
         "created": "2021-08-26T12:19:58Z",
         "related_reports": [],
         "internal_attributes": [],
         "modified": "2021-08-26T12:19:58Z",
         "id": "aadf0125-c1fd-5a7c-808f-72aa2cf1a798",
         "object_type": "ThalesCampaign",
         "name": "2021 - ATK237 (Javali) campaign against Brazil",
         "description": "",
         "happened_at": "2021-05-06T14:21:00Z",
         "related_adversaries": [
            {
               "name": "ATK237",
               "relationship": "attributed-to"
            },
            {
               "name": "Javali Operator",
               "relationship": "attributed-to"
            }
         ],
         "related_attack_patterns": [],
         "related_malwares": [],
         "related_tools": [],
         "related_vulnerabilities": []
      },
      {
         "version": 2,
         "attributes": [],
         "sources": [
            {
               "name": "ESET",
               "TLP": "WHITE",
               "object_type": "ThalesSource"
            }
         ],
         "created": "2021-08-26T12:22:09Z",
         "related_reports": [],
         "internal_attributes": [],
         "modified": "2021-08-26T12:22:09Z",
         "id": "a3d1894c-67ef-50c4-8c79-feef2006e663",
         "object_type": "ThalesCampaign",
         "name": "2021 - ATK237 (Grandoreiro ) campaign against USA",
         "description": "",
         "happened_at": "2021-05-07T14:24:00Z",
         "related_adversaries": [
            {
               "name": "ATK237",
               "relationship": "attributed-to"
            },
            {
               "name": "Grandoreiro Operator",
               "relationship": "attributed-to"
            }
         ],
         "related_attack_patterns": [],
         "related_malwares": [],
         "related_tools": [],
         "related_vulnerabilities": []
      }
   ]
}