{
   "version": 2,
   "object_type": "ThalesContainer",
   "objects": [
      {
         "version": 2,
         "attributes": [
            {
               "name": "Target Sector",
               "source": {
                  "name": "Thales",
                  "TLP": "WHITE",
                  "object_type": "ThalesSource"
               },
               "value": "Military",
               "object_type": "ThalesAttribute"
            },
            {
               "name": "Target Sector",
               "source": {
                  "name": "Thales",
                  "TLP": "WHITE",
                  "object_type": "ThalesSource"
               },
               "value": "Media",
               "object_type": "ThalesAttribute"
            },
            {
               "name": "Target Sector",
               "source": {
                  "name": "Thales",
                  "TLP": "WHITE",
                  "object_type": "ThalesSource"
               },
               "value": "Manufacturing",
               "object_type": "ThalesAttribute"
            },
            {
               "name": "Target Sector",
               "source": {
                  "name": "Thales",
                  "TLP": "WHITE",
                  "object_type": "ThalesSource"
               },
               "value": "Healthcare",
               "object_type": "ThalesAttribute"
            },
            {
               "name": "Target Sector",
               "source": {
                  "name": "Thales",
                  "TLP": "WHITE",
                  "object_type": "ThalesSource"
               },
               "value": "GOVERNMENT AND ADMINISTRATION agencies",
               "object_type": "ThalesAttribute"
            },
            {
               "name": "Target Sector",
               "source": {
                  "name": "Thales",
                  "TLP": "WHITE",
                  "object_type": "ThalesSource"
               },
               "value": "Financial Services",
               "object_type": "ThalesAttribute"
            },
            {
               "name": "Target Sector",
               "source": {
                  "name": "Thales",
                  "TLP": "WHITE",
                  "object_type": "ThalesSource"
               },
               "value": "Energy",
               "object_type": "ThalesAttribute"
            },
            {
               "name": "Target Sector",
               "source": {
                  "name": "Thales",
                  "TLP": "WHITE",
                  "object_type": "ThalesSource"
               },
               "value": "Aerospace",
               "object_type": "ThalesAttribute"
            },
            {
               "name": "Target Country",
               "source": {
                  "name": "Thales",
                  "TLP": "WHITE",
                  "object_type": "ThalesSource"
               },
               "value": "United States Of America",
               "object_type": "ThalesAttribute"
            },
            {
               "name": "Target Country",
               "source": {
                  "name": "Thales",
                  "TLP": "WHITE",
                  "object_type": "ThalesSource"
               },
               "value": "Korea, Republic Of",
               "object_type": "ThalesAttribute"
            },
            {
               "name": "TLP",
               "source": {
                  "name": "Thales",
                  "TLP": "WHITE",
                  "object_type": "ThalesSource"
               },
               "value": "WHITE",
               "object_type": "ThalesAttribute"
            },
            {
               "name": "Origin",
               "source": {
                  "name": "Thales",
                  "TLP": "WHITE",
                  "object_type": "ThalesSource"
               },
               "value": "North Korea",
               "object_type": "ThalesAttribute"
            }
         ],
         "sources": [
            {
               "name": "Thales",
               "TLP": "WHITE",
               "object_type": "ThalesSource"
            },
            {
               "name": "Thales",
               "TLP": "WHITE",
               "object_type": "ThalesSource"
            }
         ],
         "created": "2018-02-15T08:43:24Z",
         "related_reports": [],
         "internal_attributes": [],
         "modified": "2018-02-15T08:43:24Z",
         "id": "faf94470-be5a-5c5b-8573-6d6fece6ffb6",
         "object_type": "ThalesAdversary",
         "name": "ATK3",
         "description": "<h2><span style=\"color:#457f94\">The International Context as a Driver of the North Korean Cyber Strategy</span></h2>\n\n<h3><span style=\"color:#b64e4b\">Recent history implications</span></h3>\n\n<p style=\"text-align: justify;\">Asia&#39;s recent geopolitics is not only structured by China&#39;s economic and informational stranglehold, via new international institutions and vassalized digital champions, but also by North Korea, whose recent policies remain difficult to pin down. North Korea&#39;s foreign policy orientations are nevertheless indexed to the confrontation with the United States.</p>\n\n<p style=\"text-align: justify;\">It should be recalled that in February 2007 relations between the two countries were due to be normalized after a bilateral agreement was signed in Beijing to record the closure of the Yongbyon power station. However, one year after the agreement, North Korea announced the reopening of this power station before firing a Unha-2 rocket which was supposed to carry a communications satellite in April 2009. However, according to military security experts, it was a ballistic missile. Since then, relations have fluctuated between tension and calm as North Korea under embargo is caught by the throat. In order to calm its adversary, the United States is providing food aid in exchange for a restraint effort<a href=\"#_edn1\">[1]</a>. However, the aid is not enough, and North Korea has no other choice but to repeat its pressure or to resort to perilous barter. Therefore, for decades, North Korea has been exchanging arms with countries such as Syria, Iran, Congo, Myanmar, Eritrea or Yemen in exchange for food<a href=\"#_edn2\">[2]</a>. The year 2018 is interesting from this point of view, since the paradigm of relations between the United States and North Korea has taken an unexpected turn.</p>\n\n<h3><span style=\"color:#b64e4b\">A new relationship with the United States?</span></h3>\n\n<p style=\"text-align:justify\">After months of great tension between Donald J. Trump and Kin Jung Un, which caused the international community to fear a nuclear incident, the North Korean leader proposed to the American President a meeting to discuss his country&#39;s military nuclearization. Prior to the meeting on 12 June 2018, Kim Jung Un redesigned the North Korean army and said he wanted to maintain &quot;the momentum of appeasement with the United States and its willingness to eventually give up its nuclear deterrent.<a href=\"#_edn3\">[3]</a>&quot; The summit resulted in a joint statement: &quot;Joint Statement of President Donald J. Trump of the United States of America and Chairman Kim Jong Un of the Democratic People&#39;s Republic of Korea at the Singapore Summit. Four main points emerge from this statement.</p>\n\n<p style=\"text-align:justify\">First, the United States and North Korea are committed to establishing a new relationship in accordance with the desire of the peoples of both countries for peace and prosperity. Second, the two countries will join efforts to establish a lasting and stable peace regime on the Korean Peninsula. Thirdly, by reaffirming the Panmunjeom Declaration of 27 April 2018<a href=\"#_edn4\">[4]</a>, North Korea is committed to working towards the complete denuclearization of the Korean peninsula. Finally, the two States undertake to recover the bodies of prisoners of war and missing in action, including the immediate repatriation of those already identified<a href=\"#_edn5\">[5]</a>. The declaration also mentions that D.J. Trump undertakes to provide security guarantees to North Korea in return.</p>\n\n<h3><span style=\"color:#b64e4b\">Cyber as a new strategic lever for North Korean ambitions</span></h3>\n\n<p style=\"text-align:justify\">How can we understand this turnaround in the geopolitical situation? A potential answer: a new cyber strategy.</p>\n\n<p style=\"text-align:justify\">North Korea is not to be outdone in this respect. Already in December 2017, the peninsular state had already distinguished itself with the WannaCry malware affair. In a quasi-joint statement, the United States and Great Britain stated that North Korea was behind this massive attack, which affected almost 300,000 computers in 150 countries and caused billions of dollars in damage. While no hard evidence was provided, Thomas Bossert, who is assisting the US President, said that Australia, Canada and New Zealand shared the same conclusions<a href=\"#_edn6\">[6]</a>. The NCSC was more specific in its statement, saying that the North Korean piracy group Lazarus was almost certainly behind the attack. In May 2017 the contaminated computers were instantly locked down and users were asked to pay a ransom in exchange for the restoration of their data. Europol described the scale of the attack as &quot;<em>unprecedented</em><a href=\"#_edn7\">[7]</a>&quot;. Already in 2014 North Korea had attacked Sony, the captain of its southern neighbor&rsquo;s digital industry. Due to the scale of the damage, the USA was assisted by Microsoft and Facebook to counter WannaCry. Microsoft in a publication confirmed the statements of the British NCSC and stated that &quot;<em>by working with Facebook and other members of the security community, we have taken strong measures to protect our customers and the Internet from ongoing attacks by an advanced player in the persistent threats known as ZINC, also known as the Lazarus Group</em><a href=\"#_edn8\">[8]</a>&quot;. The attack, while reaching known geopolitical enemies such as Britain, whose Health National Service (NHS) was hit hard, also spread to states relatively close to North Korea such as Russia. The country&#39;s postal services were also severely disrupted<a href=\"#_edn9\">[9]</a>.&nbsp;</p>\n\n<h3><span style=\"color:#b64e4b\">A cyber tool at the service of the regime&#39;s domestic and foreign policy</span></h3>\n\n<p style=\"text-align:justify\">North Korea is using its cyber capabilities for two geopolitical purposes. First, as with the Sony and WannaCry attacks, the country is very simply targeting its classic geopolitical enemies. In June 2018, for example, North Korean hackers targeted a South Korean think tank specializing in national security issues. The hackers took advantage of a zero-day<a href=\"#_edn10\">[10]</a> to compromise the organization&#39;s website and insert a backdoor for code injection. Earlier in April 2018, Chinese state-sponsored hacking groups targeted Japanese defence companies to obtain information on Tokyo&#39;s policy towards North Korea. This information was likely shared. In May it was the Google Play application that was hacked. Compromised Android applications, hosted on Google Play, were stealing information from the devices and allowing the insertion of codes stealing photos, contact lists and SMS messages.</p>\n\n<p style=\"text-align:justify\">In addition to these direct attacks or cyber-espionage actions of geopolitical origin, North Korea uses cyber-espionage as a repercussion of geopolitical situations. As we mentioned, the country has to use barter to support itself and to circumvent the Western embargo. Cyber-attacks have become the new tool of this North Korean policy of survival. In August 2018, the Indian bank Cosmos was robbed of 13.5 million dollars by North Korean hackers who, after penetrating the structure&#39;s banking system and making thousands of unauthorized ATM withdrawals, made several illegal money transfers via the SWIFT financial network. The same technique was used, and the same consequences were seen in April 2018 at a Central American online casino with the aim of siphoning off funds. Finally, although there are many examples, as early as March 2018 the group of hackers in question targeted several major Turkish banks and government funding agencies<a href=\"#_edn11\">[11]</a>.</p>\n\n<h2><span style=\"color:#457f94\">What Lazarus really mean? <a href=\"#_edn12\"><strong><span style=\"color:#457f94\">[12]</span></strong></a></span></h2>\n\n<p style=\"text-align: justify;\">The North Korean cyber threat structure is unique. Several high-level groups exist with the characteristic of being dedicated to a specific function. However, all of these groups are linked to the North Korean military apparatus, in particular to Bureau 121 of the Reconnaissance General Bureau, which leads most sources to amalgamate them under a devoted name, Lazarus. Nevertheless, this concentration is detrimental to the analysis insofar as the &quot;Lazarus&quot; prism leads us to consider that only one group pursues the motivations of APT, cybercriminal, terrorist and hacktivist at the same time. We try as much as possible to specify the Lazarus sub-groups for adequate intelligence.</p>\n\n<p style=\"text-align: justify;\">AKT3 or Lazarus is not a single Threat Group. It represents the Bureau 121 which is one of the eight Bureaus associated to the&nbsp;<strong>Reconnaissance General Bureau</strong>. The Bureau 121 is the primary office tasked with cyber operations. It was reorganized in September 2016 and it is now composed of:</p>\n\n<ul>\n\t<li style=\"text-align:justify\"><strong>Lab 110</strong>: It is the key cyber unit under the RGB; it applies cyberattack techniques to conduct intelligence operations\n\n\t<ul>\n\t\t<li style=\"text-align:justify\"><strong>Office 98</strong>: Primarily collects information on North Korean defectors, organizations that support them, overseas research institutes related to North Korea, and university professors in South Korea.</li>\n\t\t<li style=\"text-align:justify\"><strong>Office 414</strong>: Gathers information on overseas government agencies, public agencies, and private companies.</li>\n\t\t<li style=\"text-align:justify\"><strong>Office 35</strong>: Office concentrated on developing malware, researching and analyzing vulnerabilities, exploits, and hacking tools.</li>\n\t</ul>\n\t</li>\n\t<li style=\"text-align:justify\"><strong>Unit 180</strong>: Unit specialized in conducting cyber operations to steal foreign money from outside North Korea.</li>\n\t<li style=\"text-align:justify\"><strong>Unit 91 (or ATK4 &ndash; APT37)</strong>:\n\t<ul>\n\t\t<li style=\"text-align:justify\">focuses on cyberattack missions targeting isolated networks, particularly on South Korea&rsquo;s critical national infrastructure such as KHNP and the ROK Ministry of National Defense.</li>\n\t\t<li style=\"text-align:justify\">stealing confidential information and technology to develop weapons of mass destruction.</li>\n\t</ul>\n\t</li>\n\t<li style=\"text-align:justify\"><strong>128 and 413 Liaison Office</strong>: Responsible of hacking foreign intelligence websites and train cyber experts.</li>\n</ul>\n\n<p style=\"text-align:justify\">The Bureau 121 conducted three main types of operations:</p>\n\n<ul>\n\t<li style=\"text-align:justify\">Cyber espionage: The Lazarus Units conducted multiple cyber espionage operations such as the Kimsuki campaign and the Operation KHNP. These espionage operations have different objectives like the tracking of North Korean dissidents, the collect of intellectual properties helping the development of weapons of mass destruction or political espionage.</li>\n\t<li style=\"text-align:justify\">Cyber Terrorism: in 2013 North Korea conducted disruptive attacks on South Korean media and financial companies (Operation DarkSeoul) and was responsible for the Sony hack link to the movie &quot;The Interview&quot; in November 2014. These attacks occur before the 2016 reorganization of the Bureau 121 that&#39;s why we can&#39;t tell which Unit is currently responsible of disruptive operations.</li>\n\t<li style=\"text-align:justify\">Money theft: On of the mission of the Bureau 121 is the collect of liquidity to finance these cyber activities and the DPKR itself. It is done by spreading ransomware like the infamous WannaCry which collected $91.000 and through bank robbery. The cyber bank robbery is done by infiltration the banking network to steal the SWIFT credentials and use these credentials to initiate transaction to an account controlled by the attacker. The most known is Bangladesh Central Bank Heist in February 2016 allowing the theft of $81m. This activity is carried on by the Unit 180, which has similar objectives than the North Korean threat group APT38 aka Stardust Chollima or BlueNoroff.</li>\n</ul>\n\n<p style=\"text-align:justify\">The Bureau 121 is supported by other Units from the&nbsp;<strong>General Staff Department</strong>:</p>\n\n<ul>\n\t<li style=\"text-align:justify\"><strong>The Operation Bureau</strong>: tacked to define cyber strategies and plan operations</li>\n\t<li style=\"text-align:justify\"><strong>The Command Automation Bureau</strong>, composed of three units:\n\t<ul>\n\t\t<li style=\"text-align:justify\"><strong>Unit 31</strong>: responsible for malware development (seems redundant with the Office 35)</li>\n\t\t<li style=\"text-align:justify\"><strong>Unit 32</strong>: responsible for military software development</li>\n\t\t<li style=\"text-align:justify\"><strong>Unit 56</strong>: responsible for command and control software development</li>\n\t</ul>\n\t</li>\n\t<li style=\"text-align:justify\"><strong>The Enemy Collapse Sabotage Bureau</strong>: tasked with information and psychological warfare.</li>\n</ul>\n\n<p style=\"text-align:justify\">A cyber operation involves the interaction of these different teams. For example, the Operation Bureau define an objective, the Office 35 find a useable exploit, the Unit 31 develop the backdoor and the lure documents with the help of the Enemy Collapse Sabotage Bureau to create efficient spear-phishing document. The Unit 56 develop C2 software and maintains a C2 infrastructure which will be used by the Lab 110, Unit 180 or Unit 91 to achieve the objective. Due to this configuration, it is expected to find tools and infrastructure overlap between the different operation units.</p>\n\n<p>&nbsp;</p>\n\n<p>&nbsp;</p>\n\n<p><a href=\"#_ednref1\">[1]</a> <a href=\"https://www.liberation.fr/planete/2012/03/28/les-usa-privent-la-coree-du-nord-d-aide-alimentaire_806501\">https://www.liberation.fr/planete/2012/03/28/les-usa-privent-la-coree-du-nord-d-aide-alimentaire_806501</a></p>\n\n<p><a href=\"#_ednref2\">[2]</a> <a href=\"https://www.rtl.fr/actu/international/la-coree-du-nord-troque-des-armes-contre-de-la-nourriture-7763234416\">https://www.rtl.fr/actu/international/la-coree-du-nord-troque-des-armes-contre-de-la-nourriture-7763234416</a></p>\n\n<p><a href=\"#_ednref3\">[3]</a> <a href=\"https://www.lemonde.fr/asie-pacifique/article/2018/06/06/avant-le-sommet-avec-donald-trump-kim-jong-un-purge-son-armee_5310429_3216.html\">https://www.lemonde.fr/asie-pacifique/article/2018/06/06/avant-le-sommet-avec-donald-trump-kim-jong-un-purge-son-armee_5310429_3216.html</a></p>\n\n<p><a href=\"#_ednref4\">[4]</a> Commitments between the two Koreas regarding cooperation and mutual peace. In particular, the two Koreas undertake to work towards the denuclearization of the Korean Peninsula, both on the southern side (under the protection of US nuclear weapons) and on the northern side.</p>\n\n<p><a href=\"#_ednref5\">[5]</a> <a href=\"https://www.cnbc.com/2018/06/12/trump-and-kim-sign-agreement-document-after-summit-in-singapore.html\">https://www.cnbc.com/2018/06/12/trump-and-kim-sign-agreement-document-after-summit-in-singapore.html</a></p>\n\n<p><a href=\"#_ednref6\">[6]</a> <a href=\"https://www.bbc.com/news/world-us-canada-42407488\">https://www.bbc.com/news/world-us-canada-42407488</a></p>\n\n<p><a href=\"#_ednref7\">[7]</a> <em>Ibid</em>.</p>\n\n<p><a href=\"#_ednref8\">[8]</a> <em>Ibid</em>.</p>\n\n<p><a href=\"#_ednref9\">[9]</a> <em>Ibid</em>.</p>\n\n<p><a href=\"#_ednref10\">[10]</a> A computer vulnerability that has not been published or has no known patches.</p>\n\n<p><a href=\"#_ednref11\">[11]</a> <a href=\"https://www.csis.org/programs/technology-policy-program/significant-cyber-incidents\">https://www.csis.org/programs/technology-policy-program/significant-cyber-incidents</a></p>\n\n<p><a href=\"#_ednref12\">[12]</a> <a href=\"https://ccdcoe.org/uploads/2019/06/Art_08_The-All-Purpose-Sword.pdf\">https://ccdcoe.org/uploads/2019/06/Art_08_The-All-Purpose-Sword.pdf</a></p>\n",
         "types_of_attacker": [
            "State Sponsored"
         ],
         "related_adversaries": [
            {
               "name": "COVELLITE",
               "relationship": "alias"
            },
            {
               "name": "Hidden Cobra",
               "relationship": "alias"
            },
            {
               "name": "Lazarus",
               "relationship": "alias"
            },
            {
               "name": "Lazarus Group",
               "relationship": "alias"
            }
         ],
         "related_attack_patterns": [
            {
               "name": "T1002 - Data Compressed",
               "relationship": "uses"
            },
            {
               "name": "T1003 - Credential Dumping",
               "relationship": "uses"
            },
            {
               "name": "T1005 - Data from Local System",
               "relationship": "uses"
            },
            {
               "name": "T1008 - Fallback Channels",
               "relationship": "uses"
            },
            {
               "name": "T1010 - Application Window Discovery",
               "relationship": "uses"
            },
            {
               "name": "T1012 - Query Registry",
               "relationship": "uses"
            },
            {
               "name": "T1013 - Port Monitors",
               "relationship": "uses"
            },
            {
               "name": "T1016 - System Network Configuration Discovery",
               "relationship": "uses"
            },
            {
               "name": "T1022 - Data Encrypted",
               "relationship": "uses"
            },
            {
               "name": "T1023 - Shortcut Modification",
               "relationship": "uses"
            },
            {
               "name": "T1024 - Custom Cryptographic Protocol",
               "relationship": "uses"
            },
            {
               "name": "T1025 - Data from Removable Media",
               "relationship": "uses"
            },
            {
               "name": "T1026 - Multiband Communication",
               "relationship": "uses"
            },
            {
               "name": "T1027 - Obfuscated Files or Information",
               "relationship": "uses"
            },
            {
               "name": "T1032 - Standard Cryptographic Protocol",
               "relationship": "uses"
            },
            {
               "name": "T1033 - System Owner/User Discovery",
               "relationship": "uses"
            },
            {
               "name": "T1036.004 - Masquerade Task or Service",
               "relationship": "uses"
            },
            {
               "name": "T1041 - Exfiltration Over C2 Channel",
               "relationship": "uses"
            },
            {
               "name": "T1041 - Exfiltration Over Command and Control Channel",
               "relationship": "uses"
            },
            {
               "name": "T1043 - Commonly Used Port",
               "relationship": "uses"
            },
            {
               "name": "T1045 - Software Packing",
               "relationship": "uses"
            },
            {
               "name": "T1047 - Windows Management Instrumentation",
               "relationship": "uses"
            },
            {
               "name": "T1048 - Exfiltration Over Alternative Protocol",
               "relationship": "uses"
            },
            {
               "name": "T1050 - New Service",
               "relationship": "uses"
            },
            {
               "name": "T1055 - Process Injection",
               "relationship": "uses"
            },
            {
               "name": "T1056 - Input Capture",
               "relationship": "uses"
            },
            {
               "name": "T1057 - Process Discovery",
               "relationship": "uses"
            },
            {
               "name": "T1059 - Command-Line Interface",
               "relationship": "uses"
            },
            {
               "name": "T1060 - Registry Run Keys / Startup Folder",
               "relationship": "uses"
            },
            {
               "name": "T1064 - Scripting",
               "relationship": "uses"
            },
            {
               "name": "T1065 - Uncommonly Used Port",
               "relationship": "uses"
            },
            {
               "name": "T1067 - Bootkit",
               "relationship": "uses"
            },
            {
               "name": "T1070 - Indicator Removal on Host",
               "relationship": "uses"
            },
            {
               "name": "T1070.006 - Timestomp",
               "relationship": "uses"
            },
            {
               "name": "T1071 - Standard Application Layer Protocol",
               "relationship": "uses"
            },
            {
               "name": "T1074 - Data Staged",
               "relationship": "uses"
            },
            {
               "name": "T1076 - Remote Desktop Protocol",
               "relationship": "uses"
            },
            {
               "name": "T1077 - Windows Admin Shares",
               "relationship": "uses"
            },
            {
               "name": "T1082 - System Information Discovery",
               "relationship": "uses"
            },
            {
               "name": "T1083 - File and Directory Discovery",
               "relationship": "uses"
            },
            {
               "name": "T1089 - Disabling Security Tools",
               "relationship": "uses"
            },
            {
               "name": "T1090 - Connection Proxy",
               "relationship": "uses"
            },
            {
               "name": "T1098 - Account Manipulation",
               "relationship": "uses"
            },
            {
               "name": "T1099 - Timestomp",
               "relationship": "uses"
            },
            {
               "name": "T1105 - Remote File Copy",
               "relationship": "uses"
            },
            {
               "name": "T1106 - Native API",
               "relationship": "uses"
            },
            {
               "name": "T1107 - File Deletion",
               "relationship": "uses"
            },
            {
               "name": "T1110 - Brute Force",
               "relationship": "uses"
            },
            {
               "name": "T1112 - Modify Registry",
               "relationship": "uses"
            },
            {
               "name": "T1115 - Clipboard Data",
               "relationship": "uses"
            },
            {
               "name": "T1124 - System Time Discovery",
               "relationship": "uses"
            },
            {
               "name": "T1132 - Data Encoding",
               "relationship": "uses"
            },
            {
               "name": "T1134 - Access Token Manipulation",
               "relationship": "uses"
            },
            {
               "name": "T1140 - Deobfuscate/Decode Files or Information",
               "relationship": "uses"
            },
            {
               "name": "T1158 - Hidden Files and Directories",
               "relationship": "uses"
            },
            {
               "name": "T1189 - Drive-by Compromise",
               "relationship": "uses"
            },
            {
               "name": "T1193 - Spearphishing Attachment",
               "relationship": "uses"
            },
            {
               "name": "T1203 - Exploitation for Client Execution",
               "relationship": "uses"
            },
            {
               "name": "T1204 - User Execution",
               "relationship": "uses"
            },
            {
               "name": "T1223 - Compiled HTML File",
               "relationship": "uses"
            },
            {
               "name": "T1485 - Data Destruction",
               "relationship": "uses"
            },
            {
               "name": "T1486 - Data Encrypted for Impact",
               "relationship": "uses"
            },
            {
               "name": "T1487 - Disk Structure Wipe",
               "relationship": "uses"
            },
            {
               "name": "T1488 - Disk Content Wipe",
               "relationship": "uses"
            },
            {
               "name": "T1489 - Service Stop",
               "relationship": "uses"
            },
            {
               "name": "T1492 - Stored Data Manipulation",
               "relationship": "uses"
            },
            {
               "name": "T1493 - Transmitted Data Manipulation",
               "relationship": "uses"
            },
            {
               "name": "T1494 - Runtime Data Manipulation",
               "relationship": "uses"
            },
            {
               "name": "T1496 - Resource Hijacking",
               "relationship": "uses"
            },
            {
               "name": "T1543.003 - Windows Service",
               "relationship": "uses"
            },
            {
               "name": "T1560.002 - Archive via Library",
               "relationship": "uses"
            },
            {
               "name": "T1569.002 - Service Execution",
               "relationship": "uses"
            },
            {
               "name": "T1573.001 - Symmetric Cryptography",
               "relationship": "uses"
            },
            {
               "name": "T1573.002 - Asymmetric Cryptography",
               "relationship": "uses"
            }
         ],
         "related_malwares": [
            {
               "name": "CRAT",
               "relationship": "uses"
            },
            {
               "name": "Dacls",
               "relationship": "uses"
            },
            {
               "name": "MATA",
               "relationship": "uses"
            },
            {
               "name": "TFlower",
               "relationship": "uses"
            },
            {
               "name": "ThreatNeedle",
               "relationship": "uses"
            },
            {
               "name": "Vyveva",
               "relationship": "uses"
            }
         ],
         "related_tools": [],
         "related_vulnerabilities": [
            {
               "name": "CVE-2016-0034",
               "relationship": "targets"
            },
            {
               "name": "CVE-2017-7269",
               "relationship": "targets"
            }
         ]
      },
      {
         "version": 2,
         "attributes": [],
         "sources": [
            {
               "name": "Thales",
               "TLP": "WHITE",
               "object_type": "ThalesSource"
            }
         ],
         "created": "2019-11-04T12:59:06Z",
         "related_reports": [],
         "internal_attributes": [],
         "modified": "2019-11-06T16:15:17Z",
         "id": null,
         "object_type": "ThalesCampaign",
         "name": "October 2019: Attack on the Kudankulam Nuclear Power Plant in India",
         "description": "",
         "happened_at": "2019-10-01T13:46:00Z",
         "related_adversaries": [
            {
               "name": "ATK3",
               "relationship": "attributed-to"
            }
         ],
         "related_attack_patterns": [],
         "related_malwares": [],
         "related_tools": [],
         "related_vulnerabilities": []
      },
      {
         "version": 2,
         "attributes": [],
         "sources": [
            {
               "name": "Thales",
               "TLP": "WHITE",
               "object_type": "ThalesSource"
            }
         ],
         "created": "2020-06-25T14:11:05Z",
         "related_reports": [],
         "internal_attributes": [],
         "modified": "2020-06-25T14:11:05Z",
         "id": null,
         "object_type": "ThalesCampaign",
         "name": "Operation In(ter)ception",
         "description": "",
         "happened_at": "2019-09-01T16:06:00Z",
         "related_adversaries": [
            {
               "name": "ATK3",
               "relationship": "attributed-to"
            }
         ],
         "related_attack_patterns": [],
         "related_malwares": [],
         "related_tools": [],
         "related_vulnerabilities": []
      }
   ]
}