{
   "version": 2,
   "object_type": "ThalesContainer",
   "objects": [
      {
         "version": 2,
         "attributes": [
            {
               "name": "Target Sector",
               "source": {
                  "name": "Thales",
                  "TLP": "WHITE",
                  "object_type": "ThalesSource"
               },
               "value": "Transportation",
               "object_type": "ThalesAttribute"
            },
            {
               "name": "Target Sector",
               "source": {
                  "name": "Thales",
                  "TLP": "WHITE",
                  "object_type": "ThalesSource"
               },
               "value": "Research",
               "object_type": "ThalesAttribute"
            },
            {
               "name": "Target Sector",
               "source": {
                  "name": "Thales",
                  "TLP": "WHITE",
                  "object_type": "ThalesSource"
               },
               "value": "PHARMACY AND DRUG MANUFACTURING",
               "object_type": "ThalesAttribute"
            },
            {
               "name": "Target Sector",
               "source": {
                  "name": "Thales",
                  "TLP": "WHITE",
                  "object_type": "ThalesSource"
               },
               "value": "Military",
               "object_type": "ThalesAttribute"
            },
            {
               "name": "Target Sector",
               "source": {
                  "name": "Thales",
                  "TLP": "WHITE",
                  "object_type": "ThalesSource"
               },
               "value": "Manufacturing",
               "object_type": "ThalesAttribute"
            },
            {
               "name": "Target Sector",
               "source": {
                  "name": "Thales",
                  "TLP": "WHITE",
                  "object_type": "ThalesSource"
               },
               "value": "Hospitality",
               "object_type": "ThalesAttribute"
            },
            {
               "name": "Target Sector",
               "source": {
                  "name": "Thales",
                  "TLP": "WHITE",
                  "object_type": "ThalesSource"
               },
               "value": "GOVERNMENT AND ADMINISTRATION agencies",
               "object_type": "ThalesAttribute"
            },
            {
               "name": "Target Sector",
               "source": {
                  "name": "Thales",
                  "TLP": "WHITE",
                  "object_type": "ThalesSource"
               },
               "value": "Defense",
               "object_type": "ThalesAttribute"
            },
            {
               "name": "Target Country",
               "source": {
                  "name": "Thales",
                  "TLP": "WHITE",
                  "object_type": "ThalesSource"
               },
               "value": "Taiwan",
               "object_type": "ThalesAttribute"
            },
            {
               "name": "Target Country",
               "source": {
                  "name": "Thales",
                  "TLP": "WHITE",
                  "object_type": "ThalesSource"
               },
               "value": "Russian Federation",
               "object_type": "ThalesAttribute"
            },
            {
               "name": "Target Country",
               "source": {
                  "name": "Thales",
                  "TLP": "WHITE",
                  "object_type": "ThalesSource"
               },
               "value": "Korea, Republic Of",
               "object_type": "ThalesAttribute"
            },
            {
               "name": "Target Country",
               "source": {
                  "name": "Thales",
                  "TLP": "WHITE",
                  "object_type": "ThalesSource"
               },
               "value": "Japan",
               "object_type": "ThalesAttribute"
            },
            {
               "name": "Target Country",
               "source": {
                  "name": "Thales",
                  "TLP": "WHITE",
                  "object_type": "ThalesSource"
               },
               "value": "China",
               "object_type": "ThalesAttribute"
            },
            {
               "name": "Target Country",
               "source": {
                  "name": "Thales",
                  "TLP": "WHITE",
                  "object_type": "ThalesSource"
               },
               "value": "Korea, Democratic People'S Republic Of",
               "object_type": "ThalesAttribute"
            },
            {
               "name": "TLP",
               "source": {
                  "name": "Thales",
                  "TLP": "WHITE",
                  "object_type": "ThalesSource"
               },
               "value": "WHITE",
               "object_type": "ThalesAttribute"
            },
            {
               "name": "Origin",
               "source": {
                  "name": "Thales",
                  "TLP": "WHITE",
                  "object_type": "ThalesSource"
               },
               "value": "South Korea",
               "object_type": "ThalesAttribute"
            },
            {
               "name": "Motivation",
               "source": {
                  "name": "Thales",
                  "TLP": "WHITE",
                  "object_type": "ThalesSource"
               },
               "value": "Espionage",
               "object_type": "ThalesAttribute"
            },
            {
               "name": "Language",
               "source": {
                  "name": "Thales",
                  "TLP": "WHITE",
                  "object_type": "ThalesSource"
               },
               "value": "Korean",
               "object_type": "ThalesAttribute"
            }
         ],
         "sources": [
            {
               "name": "Thales",
               "TLP": "WHITE",
               "object_type": "ThalesSource"
            },
            {
               "name": "Thales",
               "TLP": "WHITE",
               "object_type": "ThalesSource"
            }
         ],
         "created": "2018-05-16T16:40:12Z",
         "related_reports": [],
         "internal_attributes": [],
         "modified": "2018-05-16T16:40:12Z",
         "id": "0126e527-4f2a-51f6-9d23-7f0fa0954cdc",
         "object_type": "ThalesAdversary",
         "name": "ATK52",
         "description": "<p><strong>ATK52</strong> (aka: DarkHotel) is a Korean speaking attacker. While some have attributed this attacker to North Korea, notably due to the overlap between the group and ATK4, there is a consensus linking this threat actor to South Korea instead. This actor targets government entities, especially in the diplomatic, defense and law enforcement. It is especially active in the Sea of Japan and the East China Sea. Its goal is espionage of specific individuals. The group possesses extended cryptographic knowledge, that allowed it to create fake certificate, a capacity do develop and use 0-days (especially around Flash Player). It also has access to an extended network infrastructure that is reliable, allowing the group to maintain long-term access to the system.</p>\n\n<p>In January 2020, a few days after Microsoft stopped Windows 7 support, DarkHotel used the DoubleStar 0day (CVE-2019-17026?CVE-2020-067) to attack Chinese government-related commerce agencies</p>\n\n<p><strong>References</strong></p>\n\n<ul>\n\t<li>10/11/2014, Kaspersky, The Darkhotel APT, <a href=\"http://securelist.com/the-darkhotel-apt/66779/\">http://securelist.com/the-darkhotel-apt/66779/</a></li>\n\t<li>10/08/2015, Kaspersky, Darkhotel&rsquo;s attacks in 2015, <a href=\"http://securelist.com/darkhotels-attacks-in-2015/71713/\">http://securelist.com/darkhotels-attacks-in-2015/71713/</a></li>\n\t<li>09/06/2016, Microsoft, Reverse-engineering DUBNIUM, <a href=\"http://cloudblogs.microsoft.com/microsoftsecure/2016/06/09/reverse-engineering-dubnium-2/?source=mmpc\">http://cloudblogs.microsoft.com/microsoftsecure/2016/06/09/reverse-engineering-dubnium-2/?source=mmpc</a></li>\n\t<li>20/10/2017, Virus Bulletin, VB2017 paper: Walking in your enemy&#39;s shadow: when fourth-party collection becomes attribution hell, <a href=\"http://www.virusbulletin.com/blog/2017/10/vb2017-paper-walking-your-enemys-shadow-when-fourth-party-collection-becomes-attribution-hell/\">http://www.virusbulletin.com/blog/2017/10/vb2017-paper-walking-your-enemys-shadow-when-fourth-party-collection-becomes-attribution-hell/</a></li>\n\t<li>18/07/2017, BitDefender, Inexsmar: An unusual DarkHotel campaign, <a href=\"http://labs.bitdefender.com/2017/07/inexsmar-an-unusual-darkhotel-campaign/\">http://labs.bitdefender.com/2017/07/inexsmar-an-unusual-darkhotel-campaign/</a></li>\n\t<li>13/05/2019, Kaspersky, ScarCruft continues to evolve, introduces Bluetooth harvester, <a href=\"http://securelist.com/scarcruft-continues-to-evolve-introduces-bluetooth-harvester/90729/\">http://securelist.com/scarcruft-continues-to-evolve-introduces-bluetooth-harvester/90729/</a></li>\n\t<li>24/06/2019, Tencent <a href=\"https://s.tencent.com/research/report/741.html\">https://s.tencent.com/research/report/741.htm</a></li>\n\t<li>11/02/2020, 360.cn, Darkhotel (APT-C-06) utilise la vuln&eacute;rabilit&eacute; 0Day &quot;Double Star&quot; (CVE-2019-17026, CVE-2020-0674) pour analyser les attaques APT lanc&eacute;es par la Chine, original (cn) - <a href=\"http://blogs.360.cn/post/apt-c-06_0day.html\">http://blogs.360.cn/post/apt-c-06_0day.html</a> translated (en) - <a href=\"https://translate.google.com/translate?sl=auto&amp;tl=en&amp;u=http%3A%2F%2Fblogs.360.cn%2Fpost%2Fapt-c-06_0day.html\">https://translate.google.com/translate?sl=auto&amp;tl=en&amp;u=http%3A%2F%2Fblogs.360.cn%2Fpost%2Fapt-c-06_0day.html</a></li>\n</ul>\n",
         "types_of_attacker": [
            "State Sponsored"
         ],
         "related_adversaries": [
            {
               "name": "APT-C-06",
               "relationship": "alias"
            },
            {
               "name": "DUBNIUM",
               "relationship": "alias"
            },
            {
               "name": "DarkHotel",
               "relationship": "alias"
            },
            {
               "name": "Fallout Team",
               "relationship": "alias"
            },
            {
               "name": "Karba",
               "relationship": "alias"
            },
            {
               "name": "Luder",
               "relationship": "alias"
            },
            {
               "name": "Nemim",
               "relationship": "alias"
            },
            {
               "name": "Nemin",
               "relationship": "alias"
            },
            {
               "name": "Pioneer",
               "relationship": "alias"
            },
            {
               "name": "SIG25",
               "relationship": "alias"
            },
            {
               "name": "Shadow Crane",
               "relationship": "alias"
            },
            {
               "name": "Tapaoux",
               "relationship": "alias"
            }
         ],
         "related_attack_patterns": [
            {
               "name": "T1016 - System Network Configuration Discovery",
               "relationship": "uses"
            },
            {
               "name": "T1023 - Shortcut Modification",
               "relationship": "uses"
            },
            {
               "name": "T1027 - Obfuscated Files or Information",
               "relationship": "uses"
            },
            {
               "name": "T1036 - Masquerading",
               "relationship": "uses"
            },
            {
               "name": "T1056 - Input Capture",
               "relationship": "uses"
            },
            {
               "name": "T1057 - Process Discovery",
               "relationship": "uses"
            },
            {
               "name": "T1060 - Registry Run Keys / Startup Folder",
               "relationship": "uses"
            },
            {
               "name": "T1063 - Security Software Discovery",
               "relationship": "uses"
            },
            {
               "name": "T1064 - Scripting",
               "relationship": "uses"
            },
            {
               "name": "T1068 - Exploitation for Privilege Escalation",
               "relationship": "uses"
            },
            {
               "name": "T1080 - Taint Shared Content",
               "relationship": "uses"
            },
            {
               "name": "T1082 - System Information Discovery",
               "relationship": "uses"
            },
            {
               "name": "T1091 - Replication Through Removable Media",
               "relationship": "uses"
            },
            {
               "name": "T1116 - Code Signing",
               "relationship": "uses"
            },
            {
               "name": "T1140 - Deobfuscate/Decode Files or Information",
               "relationship": "uses"
            },
            {
               "name": "T1145 - Private Keys",
               "relationship": "uses"
            },
            {
               "name": "T1170 - Mshta",
               "relationship": "uses"
            },
            {
               "name": "T1189 - Drive-by Compromise",
               "relationship": "uses"
            },
            {
               "name": "T1193 - Spearphishing Attachment",
               "relationship": "uses"
            },
            {
               "name": "T1203 - Exploitation for Client Execution",
               "relationship": "uses"
            },
            {
               "name": "T1204 - User Execution",
               "relationship": "uses"
            }
         ],
         "related_malwares": [
            {
               "name": "DarkHotel",
               "relationship": "uses"
            },
            {
               "name": "Nemim",
               "relationship": "uses"
            },
            {
               "name": "Tapaoux",
               "relationship": "uses"
            }
         ],
         "related_tools": [],
         "related_vulnerabilities": [
            {
               "name": "CVE-2010-0188",
               "relationship": "targets"
            },
            {
               "name": "CVE-2014-0497",
               "relationship": "targets"
            },
            {
               "name": "CVE-2015-5119",
               "relationship": "targets"
            },
            {
               "name": "CVE-2016-4117",
               "relationship": "targets"
            },
            {
               "name": "CVE-2019-17026",
               "relationship": "targets"
            },
            {
               "name": "CVE-2020-0674",
               "relationship": "targets"
            }
         ]
      },
      {
         "version": 2,
         "attributes": [],
         "sources": [
            {
               "name": "Thales",
               "TLP": "WHITE",
               "object_type": "ThalesSource"
            }
         ],
         "created": "2019-08-29T12:26:43Z",
         "related_reports": [],
         "internal_attributes": [],
         "modified": "2019-08-29T12:26:43Z",
         "id": null,
         "object_type": "ThalesCampaign",
         "name": "Since at least 2007: Precise attacks in hotels and wide spreading through P2P networks",
         "description": "",
         "happened_at": "2007-01-01T14:33:00Z",
         "related_adversaries": [
            {
               "name": "ATK52",
               "relationship": "attributed-to"
            }
         ],
         "related_attack_patterns": [],
         "related_malwares": [],
         "related_tools": [],
         "related_vulnerabilities": []
      },
      {
         "version": 2,
         "attributes": [],
         "sources": [
            {
               "name": "Thales",
               "TLP": "WHITE",
               "object_type": "ThalesSource"
            }
         ],
         "created": "2019-08-29T12:29:19Z",
         "related_reports": [],
         "internal_attributes": [],
         "modified": "2019-08-29T12:29:19Z",
         "id": null,
         "object_type": "ThalesCampaign",
         "name": "Attacks in 2015",
         "description": "",
         "happened_at": "2015-01-01T14:36:00Z",
         "related_adversaries": [
            {
               "name": "ATK52",
               "relationship": "attributed-to"
            }
         ],
         "related_attack_patterns": [],
         "related_malwares": [],
         "related_tools": [],
         "related_vulnerabilities": []
      },
      {
         "version": 2,
         "attributes": [],
         "sources": [
            {
               "name": "Thales",
               "TLP": "WHITE",
               "object_type": "ThalesSource"
            }
         ],
         "created": "2019-08-29T12:30:28Z",
         "related_reports": [],
         "internal_attributes": [],
         "modified": "2019-08-29T12:30:28Z",
         "id": null,
         "object_type": "ThalesCampaign",
         "name": "Attacks Since 2016: New exploits and Overlap with ATK4",
         "description": "",
         "happened_at": "2016-01-01T14:37:00Z",
         "related_adversaries": [
            {
               "name": "ATK52",
               "relationship": "attributed-to"
            }
         ],
         "related_attack_patterns": [],
         "related_malwares": [],
         "related_tools": [],
         "related_vulnerabilities": []
      },
      {
         "version": 2,
         "attributes": [],
         "sources": [
            {
               "name": "Thales",
               "TLP": "WHITE",
               "object_type": "ThalesSource"
            }
         ],
         "created": "2020-04-07T08:54:34Z",
         "related_reports": [],
         "internal_attributes": [],
         "modified": "2020-04-07T08:54:34Z",
         "id": null,
         "object_type": "ThalesCampaign",
         "name": "DarkHotel attacking Chinese foreign representatives using a vulnerability in SangFor VPN",
         "description": "",
         "happened_at": "2020-04-07T10:18:00Z",
         "related_adversaries": [
            {
               "name": "ATK52",
               "relationship": "attributed-to"
            },
            {
               "name": "DarkHotel",
               "relationship": "attributed-to"
            }
         ],
         "related_attack_patterns": [],
         "related_malwares": [],
         "related_tools": [],
         "related_vulnerabilities": []
      }
   ]
}