{
   "version": 2,
   "object_type": "ThalesContainer",
   "objects": [
      {
         "version": 2,
         "attributes": [
            {
               "name": "Target Country",
               "source": {
                  "name": "Thales",
                  "TLP": "WHITE",
                  "object_type": "ThalesSource"
               },
               "value": "Syrian Arab Republic",
               "object_type": "ThalesAttribute"
            },
            {
               "name": "TLP",
               "source": {
                  "name": "Thales",
                  "TLP": "WHITE",
                  "object_type": "ThalesSource"
               },
               "value": "WHITE",
               "object_type": "ThalesAttribute"
            },
            {
               "name": "Origin",
               "source": {
                  "name": "Thales",
                  "TLP": "WHITE",
                  "object_type": "ThalesSource"
               },
               "value": "Syria",
               "object_type": "ThalesAttribute"
            }
         ],
         "sources": [
            {
               "name": "Thales",
               "TLP": "WHITE",
               "object_type": "ThalesSource"
            }
         ],
         "created": "2019-03-20T15:26:48Z",
         "related_reports": [],
         "internal_attributes": [],
         "modified": "2019-03-20T15:26:48Z",
         "id": "68d9cf51-36e9-5918-9709-f06746337f4c",
         "object_type": "ThalesAdversary",
         "name": "ATK80",
         "description": "<p style=\"text-align:justify\"><strong>ATK80</strong> (aka: APT-C-27, GoldMouse or Golden Rat) is a threat actor active since at least November 2014. It launched targeted long-term attacks against organizations in the Syrian region using Android and Windows malwares. Its objective is the theft of sensitive information. Its malwares are mainly disguised as common chat software such as ChatSecure or WhatsApp or Telegram. It also uses the njRat, an open-source Remote Access Trojan created in 2012 and often used against targets in the Middle East.<br />\nIt is supposed that this group is one of the branch of the Syrian Electronic Army, with</p>\n\n<p style=\"text-align:justify\">The&nbsp; initial access techniques include the conception of fake websites helped by typosquatting used to lead the user to download the malicious messaging app. The group also used social media like Facebook to&nbsp;induce users to download the malicious softwares from a specified link. 360 NetLab reserchers asees that lure documents could be used to deliver the payload through spear-phishing.</p>\n\n<p style=\"text-align:justify\">Its Android spyware has the ability of recording, photographing, GPS positioning, uploading contacts/call records/sms/files, executing cloud commands, etc. These capabilities allow the attacker to efficiently track a person. In a four years period, the group improved from using open-source malwares such as njRat or Downloader to its own custom Android RAT, Windows RAT and JS backdoor. This developpement indicated that the group has ressources but it used a small C2 infrastructure with 9 known C2 domains in the same period. Furthermore this group to heavily rely on advanced phishing techniques than exploiting sophisticated vulnerabilities.</p>\n\n<p style=\"text-align:justify\">This group attacks in waves :</p>\n\n<ul>\n\t<li style=\"text-align:justify\">October 2014 - July 2015 : Attacks against Syria using njRat and Downloader plus AndroRAT for Android devices</li>\n\t<li style=\"text-align:justify\">July 2015 - November 2016 : Attacks using DarkComet, VBS Backdoor, AndroRAT and multiple types of payloads</li>\n\t<li style=\"text-align:justify\">December 2016 - July 2018 : Attacks using a custom Android RAT, a custom Windows RAT, a JavaScript Backdoor</li>\n</ul>\n\n<p style=\"text-align:justify\">In March 2019, the group started to use the WinRAR vulnerability (CVE-2018-20250) to install an embedded njRat on a vulnerable computer. The language used in the malwares and in the lure documents is Arabic. The lure documents are about terrorist attacks, a sensible subject in the Middle East region and other theme that can easily lead to user curiosity.</p>\n\n<h3 style=\"text-align:justify\">Android RAT</h3>\n\n<p style=\"text-align:justify\">The Android RAT is an application pretending to be &quot;ChatSecure&quot;, &quot;WordActivation&quot;, &quot;whatsappupdate_2017&quot;, &quot;?????_??_??&quot; and other common chat office software. It incite the user to activate Android Device Manager to protect itself from being easily uninstalled and hide its icon to run in background. After establishing a connection with the C2 he wait for command and steal data from WhatsApp, Viper and other softwares. It has the hability of recording, photographing, GPS positioning, uploading contacts/call records/sms/files, executing cloud commands in xml format, etc.</p>\n\n<h3 style=\"text-align:justify\">Windows RAT</h3>\n\n<p style=\"text-align:justify\">This Windows RAT pretend to be the Telegram chat application, using strong phishing techniques (well choosed icons, names, well made interfaces) with a fake installation interface to lead the user to install the malware and, if needed, malicious updates. It is created using .net and has common backdoor habilities like upload/download/create/move/delete/rename/run/zip/unzip files, get process list and kill a process, take and upload a screenshot or execute a command.</p>\n\n<h3 style=\"text-align:justify\">VBS Backdoor</h3>\n\n<p style=\"text-align:justify\">This group used a large number of VBS scripts which are obfuscated. These scripts have backdoor fonctionalities.</p>\n\n<h3 style=\"text-align:justify\">JS Backdoor</h3>\n\n<p style=\"text-align:justify\">A JavaScript script able to create file or a script in the tmp directory and run it, get a specified environment variable, executing a command and update itself.</p>\n\n<p>&nbsp;</p>\n\n<p style=\"text-align:justify\">Other Mobile TTP</p>\n\n<p>&nbsp;</p>\n\n<ul>\n\t<li style=\"text-align:justify\">Access Installed Applications</li>\n\t<li style=\"text-align:justify\">Create File and Directory</li>\n\t<li style=\"text-align:justify\">Uncommonly Used Port</li>\n</ul>\n\n<p style=\"text-align:justify\">Notable behaviors:</p>\n\n<ul>\n\t<li style=\"text-align:justify\">Using of .scr (screen saver in Windows) file format for its decoy documents</li>\n\t<li style=\"text-align:justify\">Theme of decoy documents titles adapted to Syrian targets</li>\n\t<li style=\"text-align:justify\">Use copy of normal software&#39;s update page to lead the user to download malicious updates</li>\n\t<li style=\"text-align:justify\">Use of fake installation interface</li>\n</ul>\n\n<h3 style=\"text-align:justify\">References</h3>\n\n<ul>\n\t<li style=\"text-align:justify\">AlienVault, <a href=\"https://otx.alienvault.com/adversary/Golden%20Rat/pulses\">Golden Rat</a></li>\n\t<li style=\"text-align:justify\">04/01/2018, 360.net, <a href=\"https://ti.360.net/blog/articles/analysis-of-apt-c-27/\">Goldmouse Organization - Targeted Attacks in Syria</a> (<a href=\"http://translate.google.com/translate?hl=en&amp;sl=auto&amp;tl=en&amp;u=https%3A%2F%2Fti.360.net%2Fblog%2Farticles%2Fanalysis-of-apt-c-27%2F\">english</a>)</li>\n\t<li style=\"text-align:justify\">23/07/2018, Cybaze, <a href=\"https://www.pbwcz.cz/Reporty/20180723_CSE_APT27_Syria_v1.pdf\">Chinese APT 27&rsquo;s long-term espionage campaign in Syria is still ongoing</a></li>\n\t<li style=\"text-align:justify\">19/03/2019, 360.net, <a href=\"https://ti.360.net/blog/articles/apt-c-27-(goldmouse):-suspected-target-attack-against-the-middle-east-with-winrar-exploit-en/\">APT-C-27 (Goldmouse): Suspected Target Attack against the Middle East with WinRAR Exploit</a></li>\n\t<li style=\"text-align:justify\">13/10/2019, 360 Core Security, <a href=\"http://blogs.360.cn/post/SEA_role_influence_cyberattacks.html\">Uncover the Secrets of the Syrian Electronic Army: The role and influence of cyber-attacks in the Syrian Civil War</a></li>\n</ul>\n",
         "types_of_attacker": [],
         "related_adversaries": [
            {
               "name": "APT-C-27",
               "relationship": "alias"
            },
            {
               "name": "Golden RAT",
               "relationship": "alias"
            },
            {
               "name": "Goldmouse",
               "relationship": "alias"
            }
         ],
         "related_attack_patterns": [
            {
               "name": "T1002 - Data Compressed",
               "relationship": "uses"
            },
            {
               "name": "T1027 - Obfuscated Files or Information",
               "relationship": "uses"
            },
            {
               "name": "T1045 - Software Packing",
               "relationship": "uses"
            },
            {
               "name": "T1065 - Uncommonly Used Port",
               "relationship": "uses"
            },
            {
               "name": "T1071 - Standard Application Layer Protocol",
               "relationship": "uses"
            },
            {
               "name": "T1102 - Web Service",
               "relationship": "uses"
            },
            {
               "name": "T1107 - File Deletion",
               "relationship": "uses"
            },
            {
               "name": "T1112 - Modify Registry",
               "relationship": "uses"
            },
            {
               "name": "T1113 - Screen Capture",
               "relationship": "uses"
            },
            {
               "name": "T1140 - Deobfuscate/Decode Files or Information",
               "relationship": "uses"
            },
            {
               "name": "T1192 - Spearphishing Link",
               "relationship": "uses"
            },
            {
               "name": "T1193 - Spearphishing Attachment",
               "relationship": "uses"
            },
            {
               "name": "T1194 - Spearphishing via Service",
               "relationship": "uses"
            },
            {
               "name": "T1204 - User Execution",
               "relationship": "uses"
            }
         ],
         "related_malwares": [
            {
               "name": "DarkComet",
               "relationship": "uses"
            },
            {
               "name": "Raddex",
               "relationship": "uses"
            },
            {
               "name": "njRAT",
               "relationship": "uses"
            }
         ],
         "related_tools": [],
         "related_vulnerabilities": [
            {
               "name": "CVE-2018-20250",
               "relationship": "targets"
            }
         ]
      },
      {
         "version": 2,
         "attributes": [],
         "sources": [
            {
               "name": "Thales",
               "TLP": "WHITE",
               "object_type": "ThalesSource"
            }
         ],
         "created": "2019-08-29T11:53:52Z",
         "related_reports": [],
         "internal_attributes": [],
         "modified": "2019-08-29T11:53:52Z",
         "id": null,
         "object_type": "ThalesCampaign",
         "name": "October 2014 - July 2015: ATK80 targets Syria using njRat and Downloader plus AndroRAT for Android devices",
         "description": "",
         "happened_at": "2014-10-01T13:53:00Z",
         "related_adversaries": [
            {
               "name": "ATK80",
               "relationship": "attributed-to"
            }
         ],
         "related_attack_patterns": [],
         "related_malwares": [],
         "related_tools": [],
         "related_vulnerabilities": []
      },
      {
         "version": 2,
         "attributes": [],
         "sources": [
            {
               "name": "Thales",
               "TLP": "WHITE",
               "object_type": "ThalesSource"
            }
         ],
         "created": "2019-08-29T11:54:45Z",
         "related_reports": [],
         "internal_attributes": [],
         "modified": "2019-08-29T11:59:38Z",
         "id": null,
         "object_type": "ThalesCampaign",
         "name": "July 2015 - November 2016: ATK80 campaign using DarkComet - VBS Backdoor - AndroRAT and multiple types of payloads",
         "description": "",
         "happened_at": "2015-07-29T13:54:00Z",
         "related_adversaries": [
            {
               "name": "ATK80",
               "relationship": "attributed-to"
            }
         ],
         "related_attack_patterns": [],
         "related_malwares": [],
         "related_tools": [],
         "related_vulnerabilities": []
      },
      {
         "version": 2,
         "attributes": [],
         "sources": [
            {
               "name": "Thales",
               "TLP": "WHITE",
               "object_type": "ThalesSource"
            }
         ],
         "created": "2019-08-29T11:55:44Z",
         "related_reports": [],
         "internal_attributes": [],
         "modified": "2019-08-29T11:58:55Z",
         "id": null,
         "object_type": "ThalesCampaign",
         "name": "December 2016 - July 2018: ATK80 campaign using a custom Android RAT - a custom Windows RAT - a JavaScript Backdoor",
         "description": "",
         "happened_at": "2016-12-01T13:55:00Z",
         "related_adversaries": [
            {
               "name": "ATK80",
               "relationship": "attributed-to"
            }
         ],
         "related_attack_patterns": [],
         "related_malwares": [],
         "related_tools": [],
         "related_vulnerabilities": []
      },
      {
         "version": 2,
         "attributes": [],
         "sources": [
            {
               "name": "Thales",
               "TLP": "WHITE",
               "object_type": "ThalesSource"
            }
         ],
         "created": "2019-08-29T11:57:03Z",
         "related_reports": [],
         "internal_attributes": [],
         "modified": "2019-08-29T11:57:03Z",
         "id": null,
         "object_type": "ThalesCampaign",
         "name": "In March 2019 ATK80 group started to use the WinRAR vulnerability (CVE-2018-20250) to install an embedded njRat on a vulnerable ",
         "description": "",
         "happened_at": "2019-03-01T13:56:00Z",
         "related_adversaries": [
            {
               "name": "ATK80",
               "relationship": "attributed-to"
            }
         ],
         "related_attack_patterns": [],
         "related_malwares": [],
         "related_tools": [],
         "related_vulnerabilities": []
      }
   ]
}