{
   "version": 2,
   "object_type": "ThalesContainer",
   "objects": [
      {
         "version": 2,
         "attributes": [
            {
               "name": "Target Sector",
               "source": {
                  "name": "Thales",
                  "TLP": "WHITE",
                  "object_type": "ThalesSource"
               },
               "value": "Media",
               "object_type": "ThalesAttribute"
            },
            {
               "name": "Target Sector",
               "source": {
                  "name": "Thales",
                  "TLP": "WHITE",
                  "object_type": "ThalesSource"
               },
               "value": "High-Tech",
               "object_type": "ThalesAttribute"
            },
            {
               "name": "Target Sector",
               "source": {
                  "name": "Thales",
                  "TLP": "WHITE",
                  "object_type": "ThalesSource"
               },
               "value": "GOVERNMENT AND ADMINISTRATION agencies",
               "object_type": "ThalesAttribute"
            },
            {
               "name": "Target Sector",
               "source": {
                  "name": "Thales",
                  "TLP": "WHITE",
                  "object_type": "ThalesSource"
               },
               "value": "Financial Services",
               "object_type": "ThalesAttribute"
            },
            {
               "name": "Target Sector",
               "source": {
                  "name": "Thales",
                  "TLP": "WHITE",
                  "object_type": "ThalesSource"
               },
               "value": "Energy",
               "object_type": "ThalesAttribute"
            },
            {
               "name": "Target Sector",
               "source": {
                  "name": "Thales",
                  "TLP": "WHITE",
                  "object_type": "ThalesSource"
               },
               "value": "Defense",
               "object_type": "ThalesAttribute"
            },
            {
               "name": "Target Sector",
               "source": {
                  "name": "Thales",
                  "TLP": "WHITE",
                  "object_type": "ThalesSource"
               },
               "value": "Aerospace",
               "object_type": "ThalesAttribute"
            },
            {
               "name": "Target Country",
               "source": {
                  "name": "Thales",
                  "TLP": "WHITE",
                  "object_type": "ThalesSource"
               },
               "value": "Yemen",
               "object_type": "ThalesAttribute"
            },
            {
               "name": "Target Country",
               "source": {
                  "name": "Thales",
                  "TLP": "WHITE",
                  "object_type": "ThalesSource"
               },
               "value": "United States Of America",
               "object_type": "ThalesAttribute"
            },
            {
               "name": "Target Country",
               "source": {
                  "name": "Thales",
                  "TLP": "WHITE",
                  "object_type": "ThalesSource"
               },
               "value": "United Kingdom Of Great Britain And Northern Ireland",
               "object_type": "ThalesAttribute"
            },
            {
               "name": "Target Country",
               "source": {
                  "name": "Thales",
                  "TLP": "WHITE",
                  "object_type": "ThalesSource"
               },
               "value": "United Arab Emirates",
               "object_type": "ThalesAttribute"
            },
            {
               "name": "Target Country",
               "source": {
                  "name": "Thales",
                  "TLP": "WHITE",
                  "object_type": "ThalesSource"
               },
               "value": "Turkey",
               "object_type": "ThalesAttribute"
            },
            {
               "name": "Target Country",
               "source": {
                  "name": "Thales",
                  "TLP": "WHITE",
                  "object_type": "ThalesSource"
               },
               "value": "Syrian Arab Republic",
               "object_type": "ThalesAttribute"
            },
            {
               "name": "Target Country",
               "source": {
                  "name": "Thales",
                  "TLP": "WHITE",
                  "object_type": "ThalesSource"
               },
               "value": "Somalia",
               "object_type": "ThalesAttribute"
            },
            {
               "name": "Target Country",
               "source": {
                  "name": "Thales",
                  "TLP": "WHITE",
                  "object_type": "ThalesSource"
               },
               "value": "Slovenia",
               "object_type": "ThalesAttribute"
            },
            {
               "name": "Target Country",
               "source": {
                  "name": "Thales",
                  "TLP": "WHITE",
                  "object_type": "ThalesSource"
               },
               "value": "Serbia",
               "object_type": "ThalesAttribute"
            },
            {
               "name": "Target Country",
               "source": {
                  "name": "Thales",
                  "TLP": "WHITE",
                  "object_type": "ThalesSource"
               },
               "value": "Saudi Arabia",
               "object_type": "ThalesAttribute"
            },
            {
               "name": "Target Country",
               "source": {
                  "name": "Thales",
                  "TLP": "WHITE",
                  "object_type": "ThalesSource"
               },
               "value": "Russian Federation",
               "object_type": "ThalesAttribute"
            },
            {
               "name": "Target Country",
               "source": {
                  "name": "Thales",
                  "TLP": "WHITE",
                  "object_type": "ThalesSource"
               },
               "value": "Qatar",
               "object_type": "ThalesAttribute"
            },
            {
               "name": "Target Country",
               "source": {
                  "name": "Thales",
                  "TLP": "WHITE",
                  "object_type": "ThalesSource"
               },
               "value": "Palestine",
               "object_type": "ThalesAttribute"
            },
            {
               "name": "Target Country",
               "source": {
                  "name": "Thales",
                  "TLP": "WHITE",
                  "object_type": "ThalesSource"
               },
               "value": "Oman",
               "object_type": "ThalesAttribute"
            },
            {
               "name": "Target Country",
               "source": {
                  "name": "Thales",
                  "TLP": "WHITE",
                  "object_type": "ThalesSource"
               },
               "value": "North Macedonia",
               "object_type": "ThalesAttribute"
            },
            {
               "name": "Target Country",
               "source": {
                  "name": "Thales",
                  "TLP": "WHITE",
                  "object_type": "ThalesSource"
               },
               "value": "New Zealand",
               "object_type": "ThalesAttribute"
            },
            {
               "name": "Target Country",
               "source": {
                  "name": "Thales",
                  "TLP": "WHITE",
                  "object_type": "ThalesSource"
               },
               "value": "Morocco",
               "object_type": "ThalesAttribute"
            },
            {
               "name": "Target Country",
               "source": {
                  "name": "Thales",
                  "TLP": "WHITE",
                  "object_type": "ThalesSource"
               },
               "value": "Libya",
               "object_type": "ThalesAttribute"
            },
            {
               "name": "Target Country",
               "source": {
                  "name": "Thales",
                  "TLP": "WHITE",
                  "object_type": "ThalesSource"
               },
               "value": "Lebanon",
               "object_type": "ThalesAttribute"
            },
            {
               "name": "Target Country",
               "source": {
                  "name": "Thales",
                  "TLP": "WHITE",
                  "object_type": "ThalesSource"
               },
               "value": "Latvia",
               "object_type": "ThalesAttribute"
            },
            {
               "name": "Target Country",
               "source": {
                  "name": "Thales",
                  "TLP": "WHITE",
                  "object_type": "ThalesSource"
               },
               "value": "Kuwait",
               "object_type": "ThalesAttribute"
            },
            {
               "name": "Target Country",
               "source": {
                  "name": "Thales",
                  "TLP": "WHITE",
                  "object_type": "ThalesSource"
               },
               "value": "Korea, Republic Of",
               "object_type": "ThalesAttribute"
            },
            {
               "name": "Target Country",
               "source": {
                  "name": "Thales",
                  "TLP": "WHITE",
                  "object_type": "ThalesSource"
               },
               "value": "Jordan",
               "object_type": "ThalesAttribute"
            },
            {
               "name": "Target Country",
               "source": {
                  "name": "Thales",
                  "TLP": "WHITE",
                  "object_type": "ThalesSource"
               },
               "value": "Israel",
               "object_type": "ThalesAttribute"
            },
            {
               "name": "Target Country",
               "source": {
                  "name": "Thales",
                  "TLP": "WHITE",
                  "object_type": "ThalesSource"
               },
               "value": "Iraq",
               "object_type": "ThalesAttribute"
            },
            {
               "name": "Target Country",
               "source": {
                  "name": "Thales",
                  "TLP": "WHITE",
                  "object_type": "ThalesSource"
               },
               "value": "Iran, Islamic Republic Of",
               "object_type": "ThalesAttribute"
            },
            {
               "name": "Target Country",
               "source": {
                  "name": "Thales",
                  "TLP": "WHITE",
                  "object_type": "ThalesSource"
               },
               "value": "India",
               "object_type": "ThalesAttribute"
            },
            {
               "name": "Target Country",
               "source": {
                  "name": "Thales",
                  "TLP": "WHITE",
                  "object_type": "ThalesSource"
               },
               "value": "Germany",
               "object_type": "ThalesAttribute"
            },
            {
               "name": "Target Country",
               "source": {
                  "name": "Thales",
                  "TLP": "WHITE",
                  "object_type": "ThalesSource"
               },
               "value": "Egypt",
               "object_type": "ThalesAttribute"
            },
            {
               "name": "Target Country",
               "source": {
                  "name": "Thales",
                  "TLP": "WHITE",
                  "object_type": "ThalesSource"
               },
               "value": "Djibouti",
               "object_type": "ThalesAttribute"
            },
            {
               "name": "Target Country",
               "source": {
                  "name": "Thales",
                  "TLP": "WHITE",
                  "object_type": "ThalesSource"
               },
               "value": "Denmark",
               "object_type": "ThalesAttribute"
            },
            {
               "name": "Target Country",
               "source": {
                  "name": "Thales",
                  "TLP": "WHITE",
                  "object_type": "ThalesSource"
               },
               "value": "China",
               "object_type": "ThalesAttribute"
            },
            {
               "name": "Target Country",
               "source": {
                  "name": "Thales",
                  "TLP": "WHITE",
                  "object_type": "ThalesSource"
               },
               "value": "Chile",
               "object_type": "ThalesAttribute"
            },
            {
               "name": "Target Country",
               "source": {
                  "name": "Thales",
                  "TLP": "WHITE",
                  "object_type": "ThalesSource"
               },
               "value": "Canada",
               "object_type": "ThalesAttribute"
            },
            {
               "name": "Target Country",
               "source": {
                  "name": "Thales",
                  "TLP": "WHITE",
                  "object_type": "ThalesSource"
               },
               "value": "Algeria",
               "object_type": "ThalesAttribute"
            },
            {
               "name": "Target Country",
               "source": {
                  "name": "Thales",
                  "TLP": "WHITE",
                  "object_type": "ThalesSource"
               },
               "value": "Afghanistan",
               "object_type": "ThalesAttribute"
            },
            {
               "name": "TLP",
               "source": {
                  "name": "Thales",
                  "TLP": "WHITE",
                  "object_type": "ThalesSource"
               },
               "value": "WHITE",
               "object_type": "ThalesAttribute"
            },
            {
               "name": "Origin",
               "source": {
                  "name": "Thales",
                  "TLP": "WHITE",
                  "object_type": "ThalesSource"
               },
               "value": "State of Palestine",
               "object_type": "ThalesAttribute"
            },
            {
               "name": "Motivation",
               "source": {
                  "name": "Thales",
                  "TLP": "WHITE",
                  "object_type": "ThalesSource"
               },
               "value": "Ideology",
               "object_type": "ThalesAttribute"
            }
         ],
         "sources": [
            {
               "name": "Thales",
               "TLP": "WHITE",
               "object_type": "ThalesSource"
            }
         ],
         "created": "2019-04-10T13:16:54Z",
         "related_reports": [],
         "internal_attributes": [],
         "modified": "2019-04-10T13:16:54Z",
         "id": "8cac2f41-d33e-545b-91e8-5703e1ec0bc6",
         "object_type": "ThalesAdversary",
         "name": "ATK89",
         "description": "<p style=\"text-align: justify;\"><strong>ATK89</strong> (aka: Molerats, Gaza Cybergang) is an Arabic politically motivated APT group, active all over the world, including in Europe and the US, but they are mainly active in the Middle East and North Africa (MENA) and in Palestine in particular. The group is comprised of three sub-groups:</p>\n\n<ul>\n\t<li style=\"text-align: justify;\">Gaza Cybergang Group 1: aka MoleRATs: The group&rsquo;s aim is to the infection of the victim in a RAT and it often makes use of text-sharing platforms, such as: PasteBin, github.com, upload.cat and more.</li>\n\t<li style=\"text-align: justify;\">Gaza Cybergang Group 2: aka Desert Falcons: the group makes use of homemade malware, tools and techniques. Victims are often infected by social engineering methods such as fake websites that promise political information or spear phishing emails and social messaging.</li>\n\t<li style=\"text-align: justify;\">Gaza Cybergang Group 3: aka Operation Parliament: The group is focused on espionage, covering on executive and judicial bodies all over the world, and focusing on MENA, particularly Palestine. the group used malware with CMD/PowerShell commands for its attacks. Each group is different in TTPs, but they make use of the same tools after gaining the initial grip on their victims.</li>\n</ul>\n\n<h3 style=\"text-align: justify;\">References</h3>\n\n<ul>\n\t<li style=\"text-align: justify;\">13/01/2012, Walla, <a href=\"https://news.walla.co.il/item/2500063\">??????? ?????? ?? ??????, ????? ????? ?? ????????</a></li>\n\t<li style=\"text-align: justify;\">02/07/2013, Threat Post, <a href=\"https://threatpost.com/njrat-espionage-malware-targets-middle-eastern-governments-telecoms-and-energy/101162/\">njRAT Espionage Malware Targets Middle Eastern Governments, Telecoms and Energy</a></li>\n\t<li style=\"text-align: justify;\">23/08/2013, Fire Eye, <a href=\"https://www.fireeye.com/blog/threat-research/2013/08/operation-molerats-middle-east-cyber-attacks-using-poison-ivy.html\">Operation Molerats: Middle East Cyber Attacks Using Poison Ivy</a></li>\n\t<li style=\"text-align: justify;\">19/02/2014, FireEye,<a href=\"https://www.fireeye.com/blog/threat-research/2014/02/xtremerat-nuisance-or-threat.html\"> XtremeRAT: Nuisance or Threat?</a></li>\n\t<li style=\"text-align: justify;\">02/06/2014, FireEye, <a href=\"https://www.fireeye.com/blog/threat-research/2014/06/molerats-here-for-spring.html\">Molerats, Here for Spring!</a></li>\n\t<li style=\"text-align: justify;\">04/06/2014, Dark Reading, <a href=\"https://www.darkreading.com/molerats-go-after-governments-us-financial-institution/d/d-id/1269423\">Molerats Go After Governments, US Financial Institution</a></li>\n\t<li style=\"text-align: justify;\">02/2015, Kaspersky, <a href=\"https://media.kasperskycontenthub.com/wp-content/uploads/sites/43/2018/03/08064309/The-Desert-Falcons-targeted-attacks.pdf\">The Desert Falcons Targeted attacks</a></li>\n\t<li style=\"text-align: justify;\">27/04/2015, pwc, <a href=\"https://pwc.blogs.com/cyber_security_updates/2015/04/attacks-against-israeli-palestinian-interests.html\">Attacks against Israeli &amp; Palestinian interests</a></li>\n\t<li style=\"text-align: justify;\">28/09/2015, Kaspersky, <a href=\"https://securelist.com/gaza-cybergang-wheres-your-ir-team/72283/\">Gaza cybergang, where&rsquo;s your IR team?</a></li>\n\t<li style=\"text-align: justify;\">01/2016, ClearSky, <a href=\"https://www.clearskysec.com/wp-content/uploads/2016/01/Operation%20DustySky_TLP_WHITE.pdf\">Operation DustySky</a></li>\n\t<li style=\"text-align: justify;\">06/2016, ClearSky, <a href=\"https://www.clearskysec.com/wp-content/uploads/2016/06/Operation-DustySky2_-6.2016_TLP_White.pdf\">Operation DustySky Part 2</a></li>\n\t<li style=\"text-align: justify;\">31/01/2017, Security Week,<a href=\"https://www.securityweek.com/gaza-cybergang-uses-quasarrat-target-governments\">Gaza Cybergang Uses QuasarRAT to Target Governments</a></li>\n\t<li style=\"text-align: justify;\">11/04/2017, FireEye, <a href=\"https://www.fireeye.com/blog/threat-research/2017/04/cve-2017-0199-hta-handler.html\">CVE-2017-0199: In the Wild Attacks Leveraging HTA Handler</a></li>\n\t<li style=\"text-align: justify;\">30/10/2017, Security Week, <a href=\"https://www.securityweek.com/hamas-linked-gaza-cybergang-has-new-tools-targets\">Hamas-Linked &lsquo;Gaza Cybergang&rsquo; Has New Tools, Targets</a></li>\n\t<li style=\"text-align: justify;\">30/10/2017, Kaspersky, <a href=\"https://securelist.com/gaza-cybergang-updated-2017-activity/82765/\">Gaza Cybergang &ndash; updated activity in 2017</a></li>\n\t<li style=\"text-align: justify;\">30/01/2018, International Business TImes, <a href=\"https://www.ibtimes.co.uk/tophat-campaign-hackers-target-middle-east-using-malware-laced-arabic-files-about-political-events-1657217\">TopHat campaign: Hackers target Middle East using malware-laced Arabic files about political events</a></li>\n\t<li style=\"text-align: justify;\">12/04/2018, Kaspersky, <a href=\"http://https://securelist.com/operation-parliament-who-is-doing-what/85237/\">Operation Parliament, who is doing what?</a></li>\n\t<li style=\"text-align: justify;\">09/07/2018, Security Week, <a href=\"https://www.securityweek.com/new-attacks-palestine-linked-gaza-cybergang\">New Attacks on Palestine Linked to &lsquo;Gaza Cybergang&rsquo;</a></li>\n\t<li style=\"text-align: justify;\">12/09/2018, GitHub, <a href=\"https://github.com/Cyb3rWard0g/ThreatHunter-Playbook/blob/master/playbooks/groups/Molerats.md\">ThreatHunter-Playbook/playbooks/groups/Molerats.md</a></li>\n\t<li style=\"text-align: justify;\">10/04/2019, Kaspersky, <a href=\"https://www.kaspersky.com/blog/gaza-cybergang/26363/\">The Gaza cybergang and its SneakyPastes campaign</a></li>\n\t<li style=\"text-align: justify;\">14/02/2019, 360 Threat Intelligence, <a href=\"https://ti.360.net/blog/articles/suspected-molerats-new-attack-in-the-middle-east-en/\">Suspected Molerats&rsquo; New Attack in the Middle East</a></li>\n\t<li style=\"text-align: justify;\">23/04/2019, <a href=\"https://www.gov.il/BlobFolder/reports/gaza-cybergang/he/GazaCybergang-CERT-IL-W-908.pdf\">???? ?????? ??????, ????? ?????? Gaza Cybergang</a></li>\n\t<li style=\"text-align: justify;\">15/01/2020, AT&amp;T Security, Alien Labs 2019 Analysis of Threat Groups Molerats and APT-C-37, <a href=\"https://cybersecurity.att.com/blogs/labs-research/alien-labs-2019-analysis-of-threat-groups-molerats-and-apt-c-37\">https://cybersecurity.att.com/blogs/labs-research/alien-labs-2019-analysis-of-threat-groups-molerats-and-apt-c-37</a></li>\n</ul>\n",
         "types_of_attacker": [
            "Cyber Terrorist",
            "State Sponsored"
         ],
         "related_adversaries": [
            {
               "name": "Extreme Jackal",
               "relationship": "alias"
            },
            {
               "name": "Gaza Hackers Team",
               "relationship": "alias"
            },
            {
               "name": "Gaza cybergang",
               "relationship": "alias"
            },
            {
               "name": "Gaza cybergang Group1",
               "relationship": "alias"
            },
            {
               "name": "Molerats",
               "relationship": "alias"
            },
            {
               "name": "Moonlight",
               "relationship": "alias"
            },
            {
               "name": "Operation Molerats",
               "relationship": "alias"
            },
            {
               "name": "TA402",
               "relationship": "alias"
            }
         ],
         "related_attack_patterns": [
            {
               "name": "T1003 - Credential Dumping",
               "relationship": "uses"
            },
            {
               "name": "T1008 - Fallback Channels",
               "relationship": "uses"
            },
            {
               "name": "T1047 - Windows Management Instrumentation",
               "relationship": "uses"
            },
            {
               "name": "T1057 - Process Discovery",
               "relationship": "uses"
            },
            {
               "name": "T1091 - Replication Through Removable Media",
               "relationship": "uses"
            },
            {
               "name": "T1116 - Code Signing",
               "relationship": "uses"
            },
            {
               "name": "T1491 - Defacement",
               "relationship": "uses"
            },
            {
               "name": "T1566.001 - Spearphishing Attachment",
               "relationship": "uses"
            },
            {
               "name": "T1566.002 - Spearphishing Link",
               "relationship": "uses"
            }
         ],
         "related_malwares": [
            {
               "name": "DHS Spyware",
               "relationship": "uses"
            },
            {
               "name": "DHS2015 / iRat",
               "relationship": "uses"
            },
            {
               "name": "DropBook",
               "relationship": "uses"
            },
            {
               "name": "DustySky",
               "relationship": "uses"
            },
            {
               "name": "Falcons\u2019 Backdoor",
               "relationship": "uses"
            },
            {
               "name": "Falcons\u2019 Downloader",
               "relationship": "uses"
            },
            {
               "name": "LastConn",
               "relationship": "uses"
            },
            {
               "name": "MoleNet",
               "relationship": "uses"
            },
            {
               "name": "Molerat Loader",
               "relationship": "uses"
            },
            {
               "name": "Pierogi",
               "relationship": "uses"
            },
            {
               "name": "PoisonIvy",
               "relationship": "uses"
            },
            {
               "name": "Scote",
               "relationship": "uses"
            },
            {
               "name": "SharpStage",
               "relationship": "uses"
            },
            {
               "name": "Spark",
               "relationship": "uses"
            },
            {
               "name": "TajMahal APT Framework",
               "relationship": "uses"
            },
            {
               "name": "XtremeRAT",
               "relationship": "uses"
            }
         ],
         "related_tools": [
            {
               "name": "Cobalt Strike",
               "relationship": "uses"
            },
            {
               "name": "Enigma Protector",
               "relationship": "uses"
            },
            {
               "name": "QuasarRAT",
               "relationship": "uses"
            },
            {
               "name": "njRAT",
               "relationship": "uses"
            }
         ],
         "related_vulnerabilities": [
            {
               "name": "CVE-2017-0199",
               "relationship": "targets"
            }
         ]
      },
      {
         "version": 2,
         "attributes": [],
         "sources": [
            {
               "name": "Thales",
               "TLP": "WHITE",
               "object_type": "ThalesSource"
            }
         ],
         "created": "2019-09-02T08:46:35Z",
         "related_reports": [],
         "internal_attributes": [],
         "modified": "2019-09-02T08:46:35Z",
         "id": null,
         "object_type": "ThalesCampaign",
         "name": "January 2012 - Defacement of Israeli Websites",
         "description": "",
         "happened_at": "2012-01-10T10:56:00Z",
         "related_adversaries": [
            {
               "name": "ATK89",
               "relationship": "attributed-to"
            }
         ],
         "related_attack_patterns": [],
         "related_malwares": [],
         "related_tools": [],
         "related_vulnerabilities": []
      },
      {
         "version": 2,
         "attributes": [],
         "sources": [
            {
               "name": "Thales",
               "TLP": "WHITE",
               "object_type": "ThalesSource"
            }
         ],
         "created": "2019-09-02T08:47:21Z",
         "related_reports": [],
         "internal_attributes": [],
         "modified": "2019-09-02T08:47:21Z",
         "id": null,
         "object_type": "ThalesCampaign",
         "name": "October 2012 - Operation \u201cMoleRATs\u201d",
         "description": "",
         "happened_at": "2012-10-10T10:56:00Z",
         "related_adversaries": [
            {
               "name": "ATK89",
               "relationship": "attributed-to"
            }
         ],
         "related_attack_patterns": [],
         "related_malwares": [],
         "related_tools": [],
         "related_vulnerabilities": []
      },
      {
         "version": 2,
         "attributes": [],
         "sources": [
            {
               "name": "Thales",
               "TLP": "WHITE",
               "object_type": "ThalesSource"
            }
         ],
         "created": "2019-09-02T08:48:33Z",
         "related_reports": [],
         "internal_attributes": [],
         "modified": "2019-09-02T08:48:33Z",
         "id": null,
         "object_type": "ThalesCampaign",
         "name": "March 2013 - 2014: 1st Campaign of the Falcon Desert Subgroup",
         "description": "",
         "happened_at": "2013-03-10T10:57:00Z",
         "related_adversaries": [
            {
               "name": "ATK89",
               "relationship": "attributed-to"
            }
         ],
         "related_attack_patterns": [],
         "related_malwares": [],
         "related_tools": [],
         "related_vulnerabilities": []
      },
      {
         "version": 2,
         "attributes": [],
         "sources": [
            {
               "name": "Thales",
               "TLP": "WHITE",
               "object_type": "ThalesSource"
            }
         ],
         "created": "2019-09-02T08:49:24Z",
         "related_reports": [],
         "internal_attributes": [],
         "modified": "2019-09-02T08:49:24Z",
         "id": null,
         "object_type": "ThalesCampaign",
         "name": "March 2013 - 2014: 2nd Campaign of the Falcon Desert Subgroup",
         "description": "",
         "happened_at": "2013-03-10T10:58:00Z",
         "related_adversaries": [
            {
               "name": "ATK89",
               "relationship": "attributed-to"
            }
         ],
         "related_attack_patterns": [],
         "related_malwares": [],
         "related_tools": [],
         "related_vulnerabilities": []
      },
      {
         "version": 2,
         "attributes": [],
         "sources": [
            {
               "name": "Thales",
               "TLP": "WHITE",
               "object_type": "ThalesSource"
            }
         ],
         "created": "2019-09-02T08:50:28Z",
         "related_reports": [],
         "internal_attributes": [],
         "modified": "2019-09-02T08:50:28Z",
         "id": null,
         "object_type": "ThalesCampaign",
         "name": "March 2013 - 2014: 3nd Campaign of the Falcon Desert Subgroup",
         "description": "",
         "happened_at": "2013-03-10T10:59:00Z",
         "related_adversaries": [
            {
               "name": "ATK89",
               "relationship": "attributed-to"
            }
         ],
         "related_attack_patterns": [],
         "related_malwares": [],
         "related_tools": [],
         "related_vulnerabilities": []
      },
      {
         "version": 2,
         "attributes": [],
         "sources": [
            {
               "name": "Thales",
               "TLP": "WHITE",
               "object_type": "ThalesSource"
            }
         ],
         "created": "2019-09-02T08:51:24Z",
         "related_reports": [],
         "internal_attributes": [],
         "modified": "2019-09-02T08:51:24Z",
         "id": null,
         "object_type": "ThalesCampaign",
         "name": "June-July 2013 - Poison Ivy Attacks",
         "description": "",
         "happened_at": "2013-06-10T11:00:00Z",
         "related_adversaries": [
            {
               "name": "ATK89",
               "relationship": "attributed-to"
            }
         ],
         "related_attack_patterns": [],
         "related_malwares": [],
         "related_tools": [],
         "related_vulnerabilities": []
      },
      {
         "version": 2,
         "attributes": [],
         "sources": [
            {
               "name": "Thales",
               "TLP": "WHITE",
               "object_type": "ThalesSource"
            }
         ],
         "created": "2019-09-02T08:52:11Z",
         "related_reports": [],
         "internal_attributes": [],
         "modified": "2019-09-02T08:52:11Z",
         "id": null,
         "object_type": "ThalesCampaign",
         "name": "April 2014 - MoleRATs Attacks on US and European targets",
         "description": "",
         "happened_at": "2014-04-10T11:01:00Z",
         "related_adversaries": [
            {
               "name": "ATK89",
               "relationship": "attributed-to"
            }
         ],
         "related_attack_patterns": [],
         "related_malwares": [],
         "related_tools": [],
         "related_vulnerabilities": []
      },
      {
         "version": 2,
         "attributes": [],
         "sources": [
            {
               "name": "Thales",
               "TLP": "WHITE",
               "object_type": "ThalesSource"
            }
         ],
         "created": "2019-09-02T08:53:04Z",
         "related_reports": [],
         "internal_attributes": [],
         "modified": "2019-09-02T08:53:04Z",
         "id": null,
         "object_type": "ThalesCampaign",
         "name": "Summer 2014 - Attacks against Israeli and Palestinian Interests",
         "description": "",
         "happened_at": "2014-06-10T11:02:00Z",
         "related_adversaries": [
            {
               "name": "ATK89",
               "relationship": "attributed-to"
            }
         ],
         "related_attack_patterns": [],
         "related_malwares": [],
         "related_tools": [],
         "related_vulnerabilities": []
      },
      {
         "version": 2,
         "attributes": [],
         "sources": [
            {
               "name": "Thales",
               "TLP": "WHITE",
               "object_type": "ThalesSource"
            }
         ],
         "created": "2019-09-02T08:53:43Z",
         "related_reports": [],
         "internal_attributes": [],
         "modified": "2019-09-02T08:53:43Z",
         "id": null,
         "object_type": "ThalesCampaign",
         "name": "2014 - 2016 - Operation Moonlight",
         "description": "",
         "happened_at": "2014-01-10T11:03:00Z",
         "related_adversaries": [
            {
               "name": "ATK89",
               "relationship": "attributed-to"
            }
         ],
         "related_attack_patterns": [],
         "related_malwares": [],
         "related_tools": [],
         "related_vulnerabilities": []
      },
      {
         "version": 2,
         "attributes": [],
         "sources": [
            {
               "name": "Thales",
               "TLP": "WHITE",
               "object_type": "ThalesSource"
            }
         ],
         "created": "2019-09-02T08:54:28Z",
         "related_reports": [],
         "internal_attributes": [],
         "modified": "2019-09-02T08:54:28Z",
         "id": null,
         "object_type": "ThalesCampaign",
         "name": "September 2015 - Operation DustySKy",
         "description": "",
         "happened_at": "2015-09-10T11:04:00Z",
         "related_adversaries": [
            {
               "name": "ATK89",
               "relationship": "attributed-to"
            }
         ],
         "related_attack_patterns": [],
         "related_malwares": [],
         "related_tools": [],
         "related_vulnerabilities": []
      },
      {
         "version": 2,
         "attributes": [],
         "sources": [
            {
               "name": "Thales",
               "TLP": "WHITE",
               "object_type": "ThalesSource"
            }
         ],
         "created": "2019-09-02T08:55:20Z",
         "related_reports": [],
         "internal_attributes": [],
         "modified": "2019-09-02T08:55:20Z",
         "id": null,
         "object_type": "ThalesCampaign",
         "name": "September 2016 - Operation DustySKy part 2",
         "description": "",
         "happened_at": "2016-09-01T11:04:00Z",
         "related_adversaries": [
            {
               "name": "ATK89",
               "relationship": "attributed-to"
            }
         ],
         "related_attack_patterns": [],
         "related_malwares": [],
         "related_tools": [],
         "related_vulnerabilities": []
      },
      {
         "version": 2,
         "attributes": [],
         "sources": [
            {
               "name": "Thales",
               "TLP": "WHITE",
               "object_type": "ThalesSource"
            }
         ],
         "created": "2019-09-02T08:56:29Z",
         "related_reports": [],
         "internal_attributes": [],
         "modified": "2019-09-02T08:56:29Z",
         "id": null,
         "object_type": "ThalesCampaign",
         "name": "2017 - Mobile Espionage, Macros and CVE-2017-0199",
         "description": "",
         "happened_at": "2017-01-01T11:06:00Z",
         "related_adversaries": [
            {
               "name": "ATK89",
               "relationship": "attributed-to"
            }
         ],
         "related_attack_patterns": [],
         "related_malwares": [],
         "related_tools": [],
         "related_vulnerabilities": []
      },
      {
         "version": 2,
         "attributes": [],
         "sources": [
            {
               "name": "Thales",
               "TLP": "WHITE",
               "object_type": "ThalesSource"
            }
         ],
         "created": "2019-09-02T08:57:30Z",
         "related_reports": [],
         "internal_attributes": [],
         "modified": "2019-09-02T08:57:30Z",
         "id": null,
         "object_type": "ThalesCampaign",
         "name": "2017 - Operation Parliament",
         "description": "",
         "happened_at": "2017-01-01T11:06:00Z",
         "related_adversaries": [
            {
               "name": "ATK89",
               "relationship": "attributed-to"
            }
         ],
         "related_attack_patterns": [],
         "related_malwares": [],
         "related_tools": [],
         "related_vulnerabilities": []
      },
      {
         "version": 2,
         "attributes": [],
         "sources": [
            {
               "name": "Thales",
               "TLP": "WHITE",
               "object_type": "ThalesSource"
            }
         ],
         "created": "2019-09-02T08:58:20Z",
         "related_reports": [],
         "internal_attributes": [],
         "modified": "2019-09-02T08:58:20Z",
         "id": null,
         "object_type": "ThalesCampaign",
         "name": "February 2019 - Middle East Attack",
         "description": "",
         "happened_at": "2019-02-01T11:07:00Z",
         "related_adversaries": [
            {
               "name": "ATK89",
               "relationship": "attributed-to"
            }
         ],
         "related_attack_patterns": [],
         "related_malwares": [],
         "related_tools": [],
         "related_vulnerabilities": []
      },
      {
         "version": 2,
         "attributes": [],
         "sources": [
            {
               "name": "Thales",
               "TLP": "WHITE",
               "object_type": "ThalesSource"
            }
         ],
         "created": "2019-09-02T08:59:15Z",
         "related_reports": [],
         "internal_attributes": [],
         "modified": "2019-09-02T08:59:15Z",
         "id": null,
         "object_type": "ThalesCampaign",
         "name": "April 2019 - \u201cSneakyPastes\u201d Campaign",
         "description": "",
         "happened_at": "2019-04-01T11:08:00Z",
         "related_adversaries": [
            {
               "name": "ATK89",
               "relationship": "attributed-to"
            }
         ],
         "related_attack_patterns": [],
         "related_malwares": [],
         "related_tools": [],
         "related_vulnerabilities": []
      },
      {
         "version": 2,
         "attributes": [],
         "sources": [
            {
               "name": "Thales",
               "TLP": "WHITE",
               "object_type": "ThalesSource"
            }
         ],
         "created": "2019-09-02T08:59:49Z",
         "related_reports": [],
         "internal_attributes": [],
         "modified": "2019-09-02T08:59:49Z",
         "id": null,
         "object_type": "ThalesCampaign",
         "name": "April 2019 - TajMahal APT Framework",
         "description": "",
         "happened_at": "2019-04-01T11:09:00Z",
         "related_adversaries": [
            {
               "name": "ATK89",
               "relationship": "attributed-to"
            }
         ],
         "related_attack_patterns": [],
         "related_malwares": [],
         "related_tools": [],
         "related_vulnerabilities": []
      },
      {
         "version": 2,
         "attributes": [],
         "sources": [
            {
               "name": "Thales",
               "TLP": "WHITE",
               "object_type": "ThalesSource"
            }
         ],
         "created": "2020-02-14T14:40:43Z",
         "related_reports": [],
         "internal_attributes": [],
         "modified": "2020-02-14T14:44:10Z",
         "id": null,
         "object_type": "ThalesCampaign",
         "name": "The Spark campaign",
         "description": "",
         "happened_at": "2019-01-01T15:38:00Z",
         "related_adversaries": [
            {
               "name": "ATK89",
               "relationship": "attributed-to"
            }
         ],
         "related_attack_patterns": [],
         "related_malwares": [],
         "related_tools": [],
         "related_vulnerabilities": []
      },
      {
         "version": 2,
         "attributes": [],
         "sources": [
            {
               "name": "Thales",
               "TLP": "WHITE",
               "object_type": "ThalesSource"
            }
         ],
         "created": "2020-02-14T14:54:55Z",
         "related_reports": [],
         "internal_attributes": [],
         "modified": "2020-02-18T13:44:38Z",
         "id": null,
         "object_type": "ThalesCampaign",
         "name": "The Pierogi Campaign",
         "description": "",
         "happened_at": "2019-12-01T15:53:00Z",
         "related_adversaries": [
            {
               "name": "ATK89",
               "relationship": "attributed-to"
            },
            {
               "name": "Molerats",
               "relationship": "attributed-to"
            }
         ],
         "related_attack_patterns": [],
         "related_malwares": [],
         "related_tools": [],
         "related_vulnerabilities": []
      },
      {
         "version": 2,
         "attributes": [],
         "sources": [
            {
               "name": "Thales",
               "TLP": "WHITE",
               "object_type": "ThalesSource"
            }
         ],
         "created": "2021-09-13T15:06:11Z",
         "related_reports": [],
         "internal_attributes": [],
         "modified": "2021-09-13T15:06:11Z",
         "id": "66bb7fe8-0fad-585d-8cf7-7ee94a8b5662",
         "object_type": "ThalesCampaign",
         "name": "2020 - Renewed arsenal and Cloud platform usage",
         "description": "",
         "happened_at": "2020-01-01T16:48:00Z",
         "related_adversaries": [
            {
               "name": "ATK89",
               "relationship": "attributed-to"
            }
         ],
         "related_attack_patterns": [],
         "related_malwares": [],
         "related_tools": [],
         "related_vulnerabilities": []
      }
   ]
}